{
	"": {
		"language": "es",
		"plural-forms": "nplurals=2; plural=(n!=1);"
	},
	" ; and no trailling comas: ": " ; y no uses comas: ",
	" ; column number ": " ; Número de columna ",
	" General": " General",
	" about how to define a source can be found": " sobre cómo definir una fuente se pueden encontrar",
	" and click its ⏰ ": " y haga clic en el ⏰ ",
	" button.": " botón.",
	" countries and ": " países y ",
	" create source": " crear fuente",
	" fetched ": " obtuvo ",
	" for ": " para ",
	" here, use only double quotes: ": " aquí, usa solo comillas dobles: ",
	" in ": " en ",
	" is ": " en ",
	" is needed to read results from the queried source, only those sources are targeted, and permissions can be dropped between searches": " es necesario para leer los resultados de la fuente consultada, solo se orientan esas fuentes y los permisos se pueden eliminar entre búsquedas",
	" languages.": " idiomas.",
	" list sources": "",
	" method;": " methodolgìa;",
	" needed permission(s).": "",
	" new ": " nueva ",
	" news ": " noticias ",
	" or your questions:": " o vuestras preguntas :",
	" over ": " sobre ",
	" permission is only used to signal the end of a long search or new results in a scheduled search": " solo se utiliza para señalar el final de una búsqueda larga o nuevos resultados en una búsqueda programada",
	" permission is used to remember settings and custom sources": " se usa para recordar configuraciones y fuentes personalizadas",
	" permission is used to schedule searches": " se utiliza para programar búsquedas",
	" provides results in ": " proporciona resultados en ",
	" reset filters": "",
	" results for \"": " resultados para \"",
	" s from ": " s desde ",
	" schedule search": "",
	" selected source(s) and ": "",
	" selected, since ": " seleccionado, mientras ",
	" selected.": " seleccionado.",
	" selectors to parse HTML;": " selectores para analizar HTML;",
	" source(s) ": "",
	" source(s) over ": " fuente(s) sobre ",
	" the ": " el permiso ",
	" to help keeping Meta-Press.es up-to-date.": " para ayudar a mantener Meta-Press.es actualizada",
	" to help you finding inspiration with examples. For instance :": " para ayudarte a encontrar la inspiración. Por ejemplo :",
	" to read the documentation.": " para leer la documentación.",
	" uses ": " utiliza ",
	" uses the HTTP ": " utiliza el HTTP ",
	"(en/fr) and more examples are shown below.": "(en/fr) y más ejemplos se muestran a continuación.",
	") decentralized press meta-search engine": ") metabuscador de prensa descentralizado",
	", and ": ", y ",
	", creating an issue or a pull request.": ", crear un tema o una solicitud.",
	"A propos": "Acerca de",
	"ATOM file": "",
	"Add to the selection": "",
	"Added": "",
	"Added sources will remain accessible between searches and updates.": "Las fuentes añadidas permanecerán accesibles entre las búsquedas y las actualizaciones.",
	"Advanced search": "Búsqueda Avanzada",
	"Agenda": "",
	"All": "",
	"All results": "Todos los resultados",
	"Also, this addon periodically (usually once a year) opens the \"journal\" page of the Meta-Press.es project website to present new features.": "Además, este WebExtension abre periódicamente (normalmente una vez al año) el sitio web del proyecto Meta-Press.es para presentar nuevas funcionalidades.",
	"Artwork by ": "Arte de ",
	"Auto": "Auto",
	"Automatically load news: ": "Cargar noticias automáticamente: ",
	"Automaticaly search in single or many words capable sources: ": "Busque automáticamente en fuentes con capacidad para una o varias palabras: ",
	"Bad results": "",
	"CSV file": "",
	"Cancel": "Cancelar",
	"Cancelling…": "",
	"Clear filter": "Limpiar el filtro",
	"Clear search": "",
	"Click ": "Clic ",
	"Click here to consult the official online documentation": "Haga clic aquí para consultar la documentación oficial en línea",
	"Click here to start the search. You can also press the Enter key.": "Haga clic aquí para comenzar la búsqueda. También puedes presionar la tecla Enter.",
	"Click to abort the search": "",
	"Click to display all results again": "Haga clic para mostrar todos los resultados de nuevo",
	"Click to load image": "Clic para cargar la imagen",
	"Click to reload the page and start a new search": "Haga clic para volver a cargar la página y comenzar una nueva búsqueda.",
	"Clone": "Clon",
	"Clone line": "Clonación de línea",
	"Close src": "",
	"Country:": "País:",
	"Create sources for Meta-Press.es": "Crea fuentes para Meta-Press.es",
	"Criterion to restrict the research to some sources only. For instance, if you want only French sources, select the 'fr' tag in the Country filter.": "Criterio para restringir la investigación a algunas fuentes únicamente. Por ejemplo, si solo desea fuentes francesas, seleccione la etiqueta 'fr' en el filtro País",
	"Currently ": "Actualmente ",
	"Custom source(s) commands :": "",
	"Daily": "Diaria",
	"Dark": "Oscuro",
	"Dark background: ": "Fondo oscuro: ",
	"Decentralized press meta-search engine": "Metabuscador de prensa descentralizado",
	"Deduplicate results (based on title): ": "Deduplicar resultados (basado en los títulos): ",
	"Default": "Defecto",
	"Default page size: ": "Tamaño de la página por defecto: ",
	"Delete": "Eliminar",
	"Describe your problem (optional) :": "",
	"Do you want to remove your custom source(s) that are also defined in the provided sources now ?": "",
	"Doc.": "",
	"Docu.": "",
	"Documentation": "Documentación",
	"Drop": "Eliminar",
	"Drop all host permissions: ": "Eliminar los permisos de afitrion: ",
	"Edit": "Editar",
	"Edit selection": "",
	"Empty search filter": "",
	"Encyclo.": "",
	"Enter your search terms and click on the sided button to start it": "Ingrese sus términos de búsqueda y haga clic en el botón lateral para iniciarlo",
	"Export JSON": "",
	"Export selection in:": "Exportar selección en:",
	"Filter result(s) between:": "",
	"Filter results": "Filtrar resultados",
	"Filter results of": "filtrar resultados de",
	"Filter sources": "",
	"Go to the source page": "",
	"Here are the ": "Estas son las ",
	"Here is what Meta-Press.es is doing with the permissions it asks for :": "Esto es lo que está haciendo Meta-Press.es con los permisos que solicita :",
	"Hourly": "Cada hora",
	"INFO :": "",
	"If you defined usefull sources, or if you still have questions after ": "Si se definen las fuentes útiles, o si todavía tienes preguntas después de ",
	"Illustrated": "",
	"Import: ": "Importar: ",
	"Inapropriate results": "",
	"Institution": "",
	"JSON file": "",
	"Language:": "Idioma:",
	"Language: ": "Idioma: ",
	"Last 2 days": "2 días",
	"Last 2 mon.": "2 meses",
	"Last 2 wks": "2 semanas",
	"Last 2 yrs": "2 año",
	"Last 3 days": "3 días",
	"Last 5 yrs": "5 año",
	"Last 6 mon.": "6 meses",
	"Last day": "1 día",
	"Last decade": "10 año",
	"Last month": "1 mes",
	"Last search": "Ultima busqueda",
	"Last week": "1 semana",
	"Last year": "1 año",
	"Launch": "Almorzar",
	"Light": "Claro",
	"Like this :-)": "Como esto :-)",
	"Line number ": "Número de línea ",
	"Link to the results in the source site": "Enlace a los resultados en el sitio de la fuente",
	"Load photos in results: ": "Cargar fotos en los resultados: ",
	"Load some news": "Cargar algun noticias",
	"Local permalink for this search": "Enlace permanente local para esta búsqueda",
	"Magazine": "",
	"Max. loaded elements: ": "Máximo de elementos cargados: ",
	"Max. results by source: ": "Max. resultados por fuente: ",
	"Meta-Press.es butterfly net logo": "Meta-Press.es logotipo de red de mariposas",
	"Meta-Press.es logo by Elisa de Castro Guerra": "Meta-Press.es logo de Elisa de Castro Guerra",
	"Meta-Press.es needs the permission to read the content of the selected sources.\nThose \"host\" permissions can be dropped or requested once and for all via the Meta-Press.es setting page.": "Meta-Press.es necesita el permiso de leer el contenido de las fuentes seleccionadas.\n Se peude eliminar este permiso de afitrion (o dar los todos) en la pagina de Configuración de Meta-Press.es.",
	"Missing results": "",
	"Mobile Dev Tools": "Mobile Dev Tools",
	"Monthly": "Mensual",
	"New result(s) for scheduled search": "",
	"Next search date": "Próxima búsqueda",
	"No result, because of a torn butterfly net ?": "",
	"No results": "",
	"No results.": "Sin resultados.",
	"Number of results by page:": "Número de resultados por página:",
	"Number of sources by page:": "",
	"Only sources corresponding to all those selected criterion will be searched": "Solo se buscarán fuentes que correspondan a todos los criterios seleccionados",
	"Only sources from the selected contries will be searched": "Solo se buscarán fuentes de los países seleccionados",
	"Only sources in the selected languages will be searched": "Solo se buscarán fuentes en los idiomas seleccionados",
	"Only sources of the selected themes will be searched": "Solo se buscarán fuentes de los temas seleccionados",
	"Only sources of the selected types (press, radio, TV…) will be searched": "Solo se buscarán fuentes de los tipos seleccionados (prensa, radio, TV...)",
	"Only sources producing results from those selected types will be searched": "Solo se bucarán fuentes de estos tipos de resultado",
	"Peer review": "",
	"Periodicity": "Periodicidad",
	"Permissions": "Permiso",
	"Please consider a small ": "Por favor, considere una pequeña ",
	"Please copy/paste us the corresponding JavaScript object": "Por favor copie/pegue el objeto JavaScript correspondiente",
	"Please donate today": "Por favor, dona hoy",
	"Position the cursor still over elements to get more info on them.": "Posiciona el cursor sobre los elementos para obtener más información.",
	"Press": "",
	"Put ": "Poner ",
	"RSS feed file": "archivo canal RSS",
	"RSS file": "archivo RSS",
	"Radio": "",
	"Reference Press": "",
	"Regional Daily Press": "",
	"Reload news when source filters change: ": "Recargar noticias cuando cambien los filtros de las fuentes: ",
	"Reload search when source filters change: ": "Recargar la búsqueda cuando cambien los filtros de las fuentes: ",
	"Reload the news": "Recargar noticias",
	"Reload your Meta-Press.es addon tab to take your changes into account.": "Recargar Meta-Press.es para tener en cuenta sus cambios.",
	"Remember host permissions: ": "Mantener los permisos de afitrion: ",
	"Remove all": "",
	"Remove results of this source": "Eliminar resultados de esta fuenta",
	"Remove the current page": "",
	"Remove the news": "Eliminar las noticias",
	"Removed": "",
	"Report a problem for this source": "",
	"Report problems for: ": "",
	"Request": "Dar",
	"Request all host permissions: ": "Dar todos los permisos de afitrion: ",
	"Reset default selection": "Restablecer la selección predeterminada",
	"Result type:": "Tipo de resultado:",
	"Retest": "Retest",
	"Save date / time change": "Guardar cambio de fecha",
	"Save search as:": "Guardar búsqueda como:",
	"Schedule this search": "Programar esta busqueda",
	"Scientific Press": "",
	"Search": "Búsqueda",
	"Search only in this source": "",
	"Search source report": "",
	"Search terms": "Términos de búsqueda",
	"Search terms, ex.": "Términos de búsqueda, ejemplo",
	"Search timeout (in seconds, 0 for unlimited): ": "",
	"Select all results in page": "",
	"Select all sources": "",
	"Select at least one source to search in.": "",
	"Select current page": "",
	"Selected": "",
	"Selection mode:": "Modo de selección",
	"Send": "",
	"Send search terms and settings ? ": "",
	"Settings": "Configuración",
	"Settings of Meta-Press.es": "Configuración de Meta-Press.es",
	"Show this quantity of headlines at once": "Muestre esta cantidad de titulares a la vez",
	"Show: ": "Mostrar: ",
	"Simon Descarpentries is working on this free / libre software since 2013.": "Simon Descarpentries está trabajando en este software libre desde 2013.",
	"Skip to main input": "Ir a la busca",
	"Social network": "",
	"Some ": "Algunas ",
	"Sources: ": "Fuentes: ",
	"Start 50 tests": "",
	"Start all tests": "",
	"Stop": "Desactivada",
	"Support": "Apoyo",
	"TV": "",
	"Technical criterion:": "Criterio técnico:",
	"Test JSON diff :": "",
	"Test integrity :": "",
	"Test sources :": "",
	"Themes:": "Temas:",
	"This choice would result in an empty selection.": "Esta elección resultaría en una selección vacía.",
	"This page uses ": "Esta página utiliza ",
	"Timezone: ": "Zona horaria : ",
	"To be able to read results from the sources, Meta-Press.es needs their \"host permission\".": "Para leer a los resultados en las fuentes, Meta-Press.es necesita sus \"permisos de afitrion\".",
	"To open the search engine, click the [": "Para abrir Meta-Press.es, haga clic en el [",
	"Toggle selection mode": "",
	"Toggle selection state": "",
	"Total": "Total",
	"Type your query here": "Escriba su consulta aquí",
	"Type:": "Tipo:",
	"Unselect": "",
	"Unselect all results in page": "",
	"View (and select) the sources": "",
	"View all the sources": "",
	"View the added sources": "",
	"View the removed sources": "",
	"View the selected sources": "",
	"Waiting for…": "",
	"Weekly": "Semanal",
	"Welcome to Meta-Press.es": "Bienvenido a Meta-Press.es",
	"You can also help me dedicating more time to this project supporting Meta-Press.es :": "También puedes ayudarme a dedicar más tiempo a este proyecto apoyando a Meta-Press.es:",
	"You can also help me dedicating more time to this project supporting Meta-Press.es via:": "También puedes ayudarme a dedicar más tiempo a este proyecto apoyando a Meta-Press.es:",
	"You can define more sources to search in, adding the corresponding instructions in the following JSON editing text area.": "Puede definir más fuentes en las que buscar, añadiendo las instrucciones correspondientes en la siguiente área de texto de edición JSON.",
	"You can help him dedicating more time to this project supporting Meta-Press.es via:": "Puedes ayudarlo dedicando más tiempo a este proyecto apoyando a Meta-Press.es: ",
	"You can schedule searches. Set the search you want from the ": "Puede programar búsquedas. Establezca la búsqueda que desee en la ",
	"Your navigator timezone": "Su zona horaria de navegador web",
	"] icon in the Firefox bar :": "] icono en la barra de Firefox",
	"alarm": "de alarma",
	"all": "todos",
	"approx": "",
	"audio": "",
	"book": "",
	"by email at ": "por correo electrónico a ",
	"cherry-pick": "",
	"code repository": "repositorio del código",
	"cryptocurrencies: ": "",
	"donation": "donación",
	"ecology": "",
	"events": "",
	"exact": "",
	"export": "",
	"extends": "extiende",
	"external search": "",
	"fast": "",
	"financial": "",
	"general": "",
	"here": "aquí",
	"host permission": "de afitrion",
	"https://developer.mozilla.org/en-US/docs/Web/JavaScript/Reference/Global_Objects/JSON/parse": "https://developer.mozilla.org/es/docs/Web/JavaScript/Reference/Global_Objects/JSON/parse",
	"https://wiki.laquadrature.net/How_to_IRC": "",
	"https://www.helloasso.com/associations/meta-press-es/formulaires/1/en": "",
	"https://www.meta-press.es/pages/a_propos.html#_you_can_support_this_work": "",
	"https://www.meta-press.es/pages/meta-press.es_documentation.html#_how_to_add_a_new_source_to_the_search_engine": "",
	"icon": "icon",
	"import": "",
	"instructions": "instucciones",
	"internal search": "",
	"life-style": "",
	"main interface": "interfaz principal",
	"many words": "",
	"media": "",
	"never empty": "",
	"notification": "de notificación",
	"one shot donations: ": "",
	"one word": "",
	"only": "sólo",
	"or via ": "o a través del ",
	"photo": "",
	"politics": "",
	"provided sources": "fuentes proporcionadas",
	"reading the doc": "leer la doc.",
	"recurring donations:": "",
	"recurring donations: ": "",
	"s to parse some fields.": "s para analizar algunos campos.",
	"save modification": "guardar modificación",
	"schedule search": "Programar búsqueda",
	"science": "",
	"search source": "",
	"slow": "",
	"space": "",
	"storage": "de almacenamiento",
	"tech": "",
	"techno.": "",
	"text": "",
	"the ": "la ",
	"valid JSON": "JSON válido",
	"via the ": "a través del ",
	"video": "",
	"waiting for ": " espera para ",
	" Welcome": " Bienvenido",
	"€ Support the project": "€ Apoyar el proyecto",
	"↶  Reset": "↶  Reiniciar",
	"⇬ Back to top": "⇬ Volver arriba",
	"⏰ Automatic search": "⏰ Busqueda automatica",
	"☑ Select all": "",
	"☑ 📄 Select current page": "",
	"⚙ Settings": "⚙ Configuración",
	"✅ toggle": "✅ cambiar",
	"✍ Report feedback": "✍ Enviar comentarios",
	"💾  Save": "💾  Guardar",
	"📢 News": "📢 Noticias",
	"📰 New sources": "📰 Nuevas fuentes",
	"🔍 Search": "🔍 Busque",
	"🔐 Permissions": "🔐 Permisos",
	"🗑 Remove all": "",
	"🗑📄 Remove current page": ""
}
