{
  "https://www.africaintelligence.fr": {
		"favicon_url": "https://www.africaintelligence.fr/favicon/favicon.ico",
		"news_rss_url": "https://www.africaintelligence.fr/info/rss",
		"search_url": "https://www.intelligenceonline.fr/search/refresh",
		"method": "POST",
		"search_ctype": "application/json",
		"body": "{\"ListType\":\"ListeRecherche\",\"RequestedPage\":1,\"searchquerry\":\"{}\"}",
		"json_to_html": "data.html",
		"results": "article",
		"r_h1": ".article-title",
		"r_url": "a",
		"r_url_attr": "href",
		"r_dt": ".label-date",
		"r_dt_fmt_1": [
			"(\\d\\d)/(\\d\\d)/(\\d{4})",
			"$3-$2-$1"
		],
		"r_txt": "p",
		"tags": {
			"name": "Africa Intelligence",
			"lang": "fr",
			"country": "fr",
			"themes": [
				"general"
			],
			"tech": [
				"many words",
				"one word",
				"fast",
				"broken"
			],
			"src_type": [
				"Press"
			],
			"res_type": [
				"text"
			],
			"tz": "Europe/Paris",
			"notes": "ciphered queries"
		}
	},
  "https://www.ansa.it/english/foto": {
		"extends": "https://www.ansa.it",
		"search_url": "https://www.ansa.it/ricerca/ansaen/search.shtml",
		"body": "any={}+&any2=&tiponotizia=foto&sezione=&periodo=&genere=&sort=data%3Adesc&start=0&rows={#}",
		"tags": {
			"name": "ANSA English (foto)",
			"lang": "en",
			"tech": "broken",
			"res_type": "image",
			"notes": "returns only 1 result from 2014"
		}
	},
  "https://ansabrasil.com.br/video": {
		"extends": "https://ansabrasil.com.br",
		"search_url": "https://ansabrasil.com.br/ricerca/brasil/search.shtml?any={}&titulo=&tag=&tiponotizia=video&periodo=&start=0&rows={#}",
		"tags": {
			"name": "ANSA Brasil (video)",
			"tech": [
				"broken"
			],
			"res_type": "video",
			"notes": "seems empty, never a result"
		},
		"positive_test_search_term": [
			"1"
		]
	},
  "https://aujourdhuilaturquie.com/fr": {
		"favicon_url": "https://aujourdhuilaturquie.com/fr/favicon.ico",
		"news_rss_url": "https://aujourdhuilaturquie.com/fr/feed/",
		"type": "XML",
		"search_url": "https://www.aujourdhuilaturquie.com/fr/search/{}/feed?orderby=post_date&order=desc",
		"search_url_web": "https://aujourdhuilaturquie.com/fr/?s={}",
		"redir_url": "http://aujourdhuilaturquie.com/search",
		"tags": {
			"name": "Aujourd'hui la Turquie",
			"lang": "fr",
			"country": "tr",
			"themes": [
				"general"
			],
			"tech": [
				"many words",
				"one word",
				"broken"
			],
			"src_type": [
				"Press"
			],
			"res_type": "text",
			"what_to_fix": "The search only gives paper edition cover results"
		}
	},
	"https://brasil.elpais.com": {
    "favicon_url": "https://ep01.epimg.net/favicon.png",
    "type": "XML",
    "xml_type": "RSS",
    "headline_url": "https://brasil.elpais.com",
    "headline_selector": "article h2.articulo-titulo a",
    "search_url": "https://brasil.elpais.com/buscador/?qt={}&sf=1&np=1&bu=ep&of=rss",
    "tags": {
      "name": "El País Brasil",
      "lang": "pt",
      "country": "es",
      "themes": [
        "general",
        "test"
      ],
      "tech": [
        "internal search",
        "many words",
        "one word",
        "fast",
        "need cookies",
        "broken"
      ],
      "src_type": [
        "Press",
        "Reference Press"
      ],
      "res_type": "text",
      "tz": "Europe/Madrid"
    }
  },
  "https://www.bruxelles2.eu/en": {
		"extends": "https://www.bruxelles2.eu",
		"favicon_url": "https://www.bruxelles2.eu/wp-content/uploads/fbrfg/favicon-32x32.png",
		"news_rss_url": "https://www.bruxelles2.eu/en/feed/",
		"search_url": "https://www.bruxelles2.eu/en/search/\"{}\"/feed?orderby=post_date&order=desc",
		"search_url_web": "https://www.bruxelles2.eu/en/?s=\"{}\"",
		"tags": {
			"name": "B2 Bruxelles2 (en)",
			"lang": "en",
			"tech": [
				"broken"
			],
			"what_to_fix": "search feed is still in french"
		}
	},
  "https://cat.elpais.com": {
    "favicon_url": "https://ep01.epimg.net/favicon.png",
    "type": "XML",
    "xml_type": "RSS",
    "headline_url": "https://cat.elpais.com",
    "headline_selector": "article h2.articulo-titulo a",
    "search_url": "https://cat.elpais.com/buscador/?qt={}&sf=1&np=1&bu=ep&of=rss",
    "tags": {
      "name": "El País .cat",
      "lang": "cat",
      "country": "es",
      "themes": [
        "general",
        "test"
      ],
      "tech": [
        "internal search",
        "many words",
        "one word",
        "fast",
        "need cookies",
        "broken"
      ],
      "src_type": [
        "Press",
        "Reference Press"
      ],
      "res_type": "text",
      "tz": "Europe/Madrid"
    }
  },
  "https://www.clubic.com": {
    "favicon_url": "https://www.clubic.com/favicon-16x16.png",
    "headline_url": "https://www.clubic.com",
    "headline_selector": ".hero-title",
    "search_url": "https://www.lemagit.fr/recherche/question?q={}&type=&pageNo=1&sortField=publishDate",
    "results": ".gsc-result",
    "r_h1": "a.gsc-title",
    "r_url": "a.gsc-title",
    "r_url_attr": "href",
    "r_dt": "div.gs-bidi-start-align.gs-snippet",
    "r_dt_fmt_1": [
      "^(\\d+) ([^\\.]*)\\.? (\\d+)\\s\\.{3}",
      "$3-{$2}-$1"
    ],
    "r_txt": "div.gs-bidi-start-align.gs-snippet",
    "r_txt_re": [
      "\\.{3}\\s(.*)\\s\\.{3}",
      "$1"
    ],
    "tags": {
      "name": "Clubic",
      "lang": "fr",
      "country": "fr",
      "themes": [
        "techno."
      ],
      "tech": [
        "many words",
        "one word",
        "internal search",
        "fast",
        "broken"
      ],
      "src_type": [
        "Press"
      ],
      "res_type": [
        "text"
      ],
      "tz": "Europe/Paris",
      "what_to_fix": "Google search"
    }
  },
  "https://www.cnet.com": {
    "favicon_url": "https://www.cnet.com/a/fly/bundles/cnetcss/images/core/icon/favicon-16.png",
    "news_rss_url": "https://www.cnet.com/rss/news/",
    "search_url": "https://www.cnet.com/search/?query={}&rpp={#}&sort=2&typeName=content_article",
    "res_nb": "a[data=content_article] span",
    "res_nb_re": [
      "\\((\\d+)\\)",
      "$1"
    ],
    "results": "section.searchItem",
    "r_h1": ".itemInfo a h3",
    "r_url": ".itemInfo a",
    "r_url_attr": "href",
    "r_dt": ".assetTime",
    "r_dt_fmt_1": [
      "^([^ ]+) (\\d+), (\\d+)",
      "$3-{$1}-$2"
    ],
    "r_txt": ".itemInfo p.dek",
    "r_img": "figure img",
    "r_img_src": "figure img",
    "r_img_src_attr": "data-original",
    "tags": {
      "name": "CNet",
      "lang": "en",
      "country": "us",
      "themes": [
        "techno."
      ],
      "tech": [
        "one word",
        "fast",
        "broken"
      ],
      "src_type": [
        "Press"
      ],
      "res_type": "text",
      "tz": "America/New_York",
      "notes": "no more search"
    }
  },
  "https://www.cnet.com/Image": {
    "extends": "https://www.cnet.com",
    "favicon_url": "https://www.cnet.com/a/fly/bundles/cnetcss/images/core/icon/favicon-16.png",
    "search_url": "https://www.cnet.com/search/?query={}&rpp={#}&sort=2&typeName=content_gallery",
    "res_nb": "a[data=content_gallery] span",
    "res_nb_re": [
      "[(](\\d+)[)]",
      "$1"
    ],
    "tags": {
      "name": "CNet - Image",
      "res_type": "image"
    }
  },
  "https://www.cnet.com/Vidéo": {
    "extends": "https://www.cnet.com",
    "favicon_url": "https://www.cnet.com/a/fly/bundles/cnetcss/images/core/icon/favicon-16.png",
    "search_url": "https://www.cnet.com/search/?query={}&rpp={#}&sort=2&typeName=content_video",
    "res_nb": "a[data=content_video] span",
    "res_nb_re": [
      "[(](\\d+)[)]",
      "$1"
    ],
    "tags": {
      "name": "CNet - Vidéo",
      "res_type": "video"
    }
  },
  "https://cn.helsinkitimes.fi": {
		"extends": "https://www.helsinkitimes.fi",
		"search_url": "https://www.helsinkitimes.fi/search1332318146.html?searchword={}&ordering=newest&searchphrase=all&limit={#}",
		"tags": {
			"name": "Helsinki Times (zh)",
			"lang": "zh",
			"country": "fi",
			"themes": [
				"general"
			],
			"tech": [
				"many words",
				"one word",
				"fast",
				"broken"
			],
			"src_type": [
				"Press"
			],
			"res_type": "text",
			"tz": "Europe/Helsinki",
			"what_to_fix": "just finish"
		},
		"favicon_url": ""
	},
  "https://www.dailystar.com.lb": {
		"favicon_url": "https://www.dailystar.com.lb/images/favico.ico",
		"search_url": "https://www.dailystar.com.lb/SearchArticles.aspx?search={}&category=0&dateOption=6&option=EXACT&fDate=01010001&tDate=01010001&type=Date&direction=DESC&pagesize={#}",
		"res_nb": "#bodyHolder_lblTotalNumber",
		"results": "ul.more-news > li",
		"r_h1": "h4 a",
		"r_url": "h4 a",
		"r_url_attr": "href",
		"r_dt": ".post-meta time",
		"r_dt_fmt_1": [
			"^(\\w{3,9})\\. (\\d+?), (\\d{4}) \\| (\\d+?:\\d+? \\w{3,6})",
			"$2 {$1} $3 $4"
		],
		"r_txt": "p",
		"tags": {
			"name": "The Daily Star (Lebanon)",
			"lang": "en",
			"country": "lb",
			"themes": [
				"general"
			],
			"tech": [
				"many words",
				"one word",
				"fast",
				"broken"
			],
			"src_type": [
				"Press"
			],
			"res_type": "text",
			"tz": "Asia/Beirut",
			"notes": "what is the problem ?"
		}
	},
  "https://www.dailystar.net": {
    "favicon_url": "https://www.dailystar.net/favicon.ico",
    "headline_url": "https://www.dailystar.net",
    "headline_selector": ".top-lead-news h1 a",
    "res_nb": "#bodyHolder_lblTotalNumber",
    "results": "ul.more-news > li",
    "r_h1": "h4 a",
    "r_url": "h4 a",
    "r_url_attr": "href",
    "r_dt": ".post-meta time",
    "r_txt": "p",
    "tags": {
      "name": "The Daily Star (Bengladesh)",
      "lang": "en",
      "country": "bd",
      "themes": [
        "general"
      ],
      "tech": [
        "many words",
        "one word",
        "internal search",
        "fast",
        "broken"
      ],
      "src_type": "Press",
      "res_type": "text",
      "tz": "Asia/Beirut",
      "what_to_fix": "Google search"
    },
    "positive_test_search_term":["gilets jaunes"],
    "search_url": ""
  },
  "https://www.dawn.com": {
    "headline_url": "https://www.dawn.com",
    "headline_selector": ".story__link",
    "search_url": "https://www.dawn.com/search?cof=FORID%3A10&ie=UTF-8&q={}",
    "results": "#cse-search-results .gsc-result",
    "r_h1": "a.gs-title",
    "r_url": "a.gs-title",
    "r_url_attr": "href",
    "r_dt": ".gs-snippet",
    "r_dt_fmt_1": [
      "^(\\w+) (\\d+), (\\d{4}) ...",
      "$3-{$2}-$1"
    ],
    "r_txt": ".gs-snippet",
    "tags": {
      "name": "Dawn",
      "lang": "en",
      "country": "pk",
      "themes": [
        "general",
        "test"
      ],
      "tech": [
        "internal search",
        "many words",
        "one word",
        "fast",
        "broken",
        "need cookies ?"
      ],
      "src_type": [
        "Press",
        "Reference Press"
      ],
      "res_type": "text",
      "tz": "Asia/Karachi",
      "what_to_fix": "Google search"
    }
  },
  "https://www.dn.no/": {
		"favicon_url": "https://static1.dn.no/skins/dn/gfx/favicons/dn/favicon-32x32.png",
		"type": "JSON",
		"search_url": "https://www.dn.no/sok/api/search?q={}&offset=0",
		"search_url_web": "https://www.dn.no/sok?q={}",
		"results": "articles",
		"r_h1": "title",
		"r_url": "article_url",
		"r_dt": "date",
		"r_dt_fmt_1": [
			"(\\d{1,2})\\.(.{1,2})\\.(\\d{4})",
			"$3-{$2}-$1"
		],
		"r_txt": "lead_text",
		"r_img_src": "image_src",
		"r_by": "pauthor",
		"tags": {
			"name": "DN",
			"lang": "nb",
			"country": "no",
			"themes": [
				"general",
				"politics"
			],
			"tech": [
				"many words",
				"fast",
				"broken"
			],
			"src_type": [
				"Press"
			],
			"res_type": [
				"text"
			],
			"tz": "Europe/Oslo",
			"what_to_fix": "need token or need referer"
		}
	},
  "https://www.eldiario.net": {
    "headline_url": "https://www.eldiario.net",
    "headline_selector": "div.cont_prin.esp_bot > a",
    "search_url": "https://cse.google.com.bo/cse?cx=partner-pub-6891038095616896%3Ahc2gmsj7xe7&ie=ISO-8859-1&q={}&submit=buscar",
    "tags": {
      "name": "El Diario",
      "lang": "es",
      "country": "bo",
      "themes": [
        "general"
      ],
      "tech": [
        "many words",
        "one word",
        "external search",
        "fast",
        "broken"
      ],
      "src_type": [
        "Press",
        "Reference Press"
      ],
      "res_type": "text",
      "tz": "America/La_Paz",
      "what_to_fix": "search broken onsite"
    },
    "results": "",
    "r_h1": "",
    "r_url": "",
    "r_url_attr": "",
    "r_dt": ""
  },
  "https://elpais.com": {
    "favicon_url": "https://ep01.epimg.net/favicon.png",
    "type": "XML",
    "xml_type": "RSS",
    "headline_url": "https://elpais.com",
    "headline_selector": ".second_column:nth-child(2) .story_card_default:first-child h2.headline a",
    "search_url": "https://elpais.com/buscador/?qt={}&sf=1&np=1&bu=ep&of=rss",
    "tags": {
      "name": "El País",
      "lang": "es",
      "country": "es",
      "themes": [
        "general"
      ],
      "tech": [
        "internal search",
        "many words",
        "one word",
        "fast",
        "need cookies",
        "broken"
      ],
      "src_type": [
        "Press",
        "Reference Press"
      ],
      "res_type": "text",
      "tz": "Europe/Madrid",
      "what_to_fix": "no cookies no results"
    }
  },
  "https://elpais.com/html": {
    "headline_url": "https://elpais.com",
    "headline_selector": "article h2.articulo-titulo a",
    "search_url": "https://elpais.com/buscador/?qt={}&sf=1&np=1&bu=ep&of=html",
    "res_nb": ".barra_buscador > p > strong",
    "results": ".resultados .article",
    "r_h1": "h2 > a",
    "r_url": "h2 > a",
    "r_url_attr": "href",
    "r_dt": ".contenido",
    "r_dt_fmt_1": [
      "^(\\d+)/(\\d+)/(\\d{4})(\\d{2}:\\d{2}) BRST$",
      "$3-$2-$1 $4"
    ],
    "r_txt": ".noticia p",
    "r_by": ".firma",
    "tags": {
      "name": "El País",
      "lang": "es",
      "country": "es",
      "themes": [
        "general",
        "test"
      ],
      "tech": [
        "internal search",
        "many words",
        "one word",
        "fast",
        "broken"
      ],
      "src_type": [
        "Press",
        "Reference Press"
      ],
      "res_type": "text",
      "tz": "Europe/Madrid",
      "what_to_fix": "Es necesario tener activadas las cookies para usar el buscador"
    }
  },
  "https://www.ekathimerini.com": {
    "favicon_url": "https://www.ekathimerini.com/wp-content/themes/nxtheme/favicon.ico",
    "headline_url": "https://www.ekathimerini.com",
    "headline_selector": ".article_NEWS .item-title a",
    "search_url": "https://www.ekathimerini.com/search/?ks={}",
    "tags": {
      "name": "Ekathimerini (en)",
      "lang": "en",
      "country": "gr",
      "themes": [
        "general"
      ],
      "tech": [
        "one word",
        "internal search",
        "fast",
        "broken"
      ],
      "src_type": [
        "Press",
        "Reference Press"
      ],
      "res_type": "text",
      "tz": "Europe/Athens",
      "what_to_fix": "Google search"
    },
    "positive_test_search_term":["gilets jaunes"]
  },
  "https://www.ettelaat.com": {
    "headline_url": "https://www.ettelaat.com",
    "headline_selector": "#content center > a",
    "h_title": "#content center > a font",
    "search_url": "https://www.ettelaat.com/?s={}",
    "results": ".post.type-post.status-publish",
    "r_h1": "center > center > font",
    "r_url": "center > center > font > a[rel=\"bookmark\"]",
    "r_url_attr": "href",
    "r_dt": ".published",
    "r_dt_attr": "title",
    "r_txt": "div[align=\"right\"] > font",
    "r_img": ".attachment--thumb.wp-post-image",
    "tags": {
      "name": "Ettela'at",
      "lang": "fa",
      "country": "ir",
      "themes": [
        "general"
      ],
      "tech": [
        "many words",
        "one word",
        "internal search",
        "fast",
        "broken"
      ],
      "src_type": [
        "Press",
        "Reference Press"
      ],
      "res_type": "text",
      "tz": "Asia/Tehran",
      "notes": "javascript required, no json"
    }
  },
  "https://europe.tv5monde.com/fr": {
    "type": "JSON",
    "search_url": "https://europe.tv5monde.com/fr/callback/nodes?title={}",
    "r_h1": "value",
    "r_url": "link",
    "r_dt": "fields.created",
    "r_dt_fmt_1": [
      "(..)/(..)/(\\d{4}) - (..:..)",
      "$3-$2-$1 $4"
    ],
    "r_by": "group.group_name",
    "tags": {
      "name": "TV5Monde Europe (fr)",
      "lang": "fr",
      "country": "fr",
      "tech": [
        "many words",
        "one word",
        "internal search",
        "fast",
        "broken"
      ],
      "src_type": "TV",
      "res_type": "video",
      "tz": "Europe/Tirane",
      "what_to_fix": "no dates on results"
    },
    "results": ""
  },
  "https://expert.ru/": {
		"favicon_url": "https://expert.ru/static/favicon-32x32.png",
		"search_url": "https://expert.ru/search/?search_text={}#gsc.tab=0&gsc.q={}&gsc.sort=date",
		"res_nb": ".gsc-result-info",
		"res_nb_xpath": "substring-before(substring-after(//div[@class='gsc-result-info'], 'примерно '), ' (')",
		"results": ".gsc-webResult",
		"r_h1": ".gs-title",
		"r_url": "a",
		"r_url_attr": "href",
		"r_dt": ".gs-bidi-start-align",
		"r_dt_fmt_1": [
			" (\\d{1,2}) (.{3,9})\\. (\\d{4})",
			"$3-{$2}-$1"
		],
		"r_img": "img",
		"r_img_attr": "src",
		"tags": {
			"name": "Expert",
			"lang": "ru",
			"country": "ru",
			"themes": [
				"general",
				"politics"
			],
			"tech": [
				"broken",
				"many words",
				"fast"
			],
			"src_type": [
				"Press"
			],
			"res_type": [
				"text"
			],
			"tz": "Europe/Moscow"
		}
	},
  "https://financialtribune.com": {
    "favicon_url": "https://financialtribune.com/misc/favicon.ico",
    "headline_url": "https://financialtribune.com",
    "headline_selector": ".content .title a",
    "search_url": "https://financialtribune.com/search/site/\"{}\"?solrsort=ds_created%20desc",
    "results": ".search-result",
    "r_h1": "a",
    "r_url": "a",
    "r_url_attr": "href",
    "r_dt": ".search-info",
    "r_dt_fmt_1": [
      "- (.*)$",
      "$1"
    ],
    "r_txt": ".search-snippet",
    "r_by": ".search-info .username",
    "tags": {
      "name": "Financial Tribune (Iran)",
      "lang": "en",
      "country": "ir",
      "themes": [
        "financial"
      ],
      "tech": [
        "many words",
        "one word",
        "internal search",
        "slow",
        "broken"
      ],
      "src_type": "Press",
      "res_type": "text",
      "tz": "Asia/Shanghai",
      "what_to_fix": "Own search broken"
    },
    "positive_test_search_term":["europe"]
  },
  "https://france3-regions.francetvinfo.fr": {
    "headline_url": "https://france3-regions.francetvinfo.fr",
    "headline_selector": ".block-info-content a",
    "search_url": "https://france3-regions.francetvinfo.fr/recherche/\"{}\"?order=date",
    "res_nb": ".content-head-search h3 span.font-weight-bold",
    "res_nb_re": [
      "^(\\d+) ",
      "$1"
    ],
    "results": "section div.content > div.content",
    "r_h1": "h2 > a",
    "r_url": "h2 > a",
    "r_url_attr": "href",
    "r_dt": ".published-date",
    "r_dt_fmt_1": [
      "le (\\d+) (.+) (\\d{4})",
      "$3-{$2}-$1"
    ],
    "r_txt": ".search-snippet",
    "tags": {
      "name": "France 3 régions",
      "lang": "fr",
      "country": "fr",
      "themes": [
        "general"
      ],
      "tech": [
        "internal search",
        "approx",
        "fast",
        "broken"
      ],
      "src_type": "TV",
      "res_type": [
        "text",
        "video"
      ],
      "tz": "Europe/Paris",
      "what_to_fix": "gives approximate results, never empty"
    }
  },
  "https://www.francetvinfo.fr": {
    "headline_url": "https://www.francetvinfo.fr",
    "headline_selector": ".headline article a.title.h1",
    "search_url": "https://www.francetvinfo.fr/recherche/?request={}",
    "res_nb": ".resultCounter .number strong",
    "res_nb_re": [
      "^(\\d+) ",
      "$1"
    ],
    "results": "#middleColumn > .flowItem",
    "r_h1": "h2",
    "r_url": "a",
    "r_url_attr": "href",
    "r_dt_fmt_1": [
      "^(\\d+) / (\\d+) / (\\d{4}) - (\\d+)h(\\d+)$",
      "$3-$2-$1 $4:$5"
    ],
    "r_txt": "p.small-content:not(.category)",
    "r_by": "p.category",
    "tags": {
      "name": "FranceInfo:",
      "lang": "fr",
      "country": "fr",
      "themes": [
        "general"
      ],
      "tech": [
        "broken",
        "internal search",
        "many words",
        "one word",
        "fast"
      ],
      "src_type": "Press",
      "res_type": "text",
      "tz": "Europe/Paris",
      "what_to_fix": "no dates on results"
    },
    "r_dt": ""
  },
  "https://fr.metrotime.be": {
    "favicon_url": "https://fr.metrotime.be/wp-content/uploads/2016/10/Favicon_bol_FR.png",
    "type": "XML",
    "xml_type": "RSS",
    "headline_url": "https://fr.metrotime.be",
    "headline_selector": "h3.entry-title a",
    "search_url": "https://fr.metrotime.be/search/\"{}\"/feed/rss2/",
    "search_url_web": "https://fr.metrotime.be/?s=\"{}\"",
    "tags": {
      "name": "Metro Time (be)",
      "lang": "fr",
      "country": "be",
      "themes": [
        "general"
      ],
      "tech": [
        "many words",
        "one word",
        "internal search",
        "slow",
        "broken"
      ],
      "src_type": [
        "Press",
        "Illustrated"
      ],
      "res_type": "text",
      "what_to_fix": "Google search"
    },
    "positive_test_search_term":["gilets jaunes"]
  },
  "https://www.funradio.fr": {
    "favicon_url": "https://www.funradio.fr/favicon.ico",
    "type": "JSON",
    "headline_url": "https://www.funradio.fr/",
    "search_url": "https://ou1fs2yh4q-dsn.algolia.net/1/indexes/*/queries?x-algolia-agent=Algolia%20for%20JavaScript%20(4.8.4)%3B%20Browser",
    "search_url_web": "https://www.funradio.fr/recherche?query={}&type=ALL&order=DATE",
    "method": "POST",
    "body": "{\"requests\":[{\"indexName\":\"prod_programs_publication_desc\",\"query\":\"{}\",\"params\":\"page=0&filters=radioSlug%3Afun_radio%20AND%20publication_at%20%3C%3D%201621000643.537\"},{\"indexName\":\"prod_podcasts_publication_desc\",\"query\":\"{}\",\"params\":\"page=0&filters=radioSlug%3Afun_radio%20AND%20publication_at%20%3C%3D%201621000643.537\"},{\"indexName\":\"prod_people\",\"query\":\"{}\",\"params\":\"page=0&filters=radioSlug%3Afun_radio\"},{\"indexName\":\"prod_articles_publication_desc\",\"query\":\"{}\",\"params\":\"page=0&filters=radioSlug%3Afun_radio%20AND%20publication_at%20%3C%3D%201621000643.537\"}]}",
    "res_nb": "results.3.nbHits",
    "results": "results.3.hits",
    "r_h1": "title",
    "r_dt": "publication_at",
    "r_txt": "summary",
    "r_img_src": "images.0.path",
    "r_by": "hosts",
    "tags": {
      "name": "Fun Radio",
      "lang": "fr",
      "country": "fr",
      "themes": [
        "general"
      ],
      "tech": [
        "one word",
        "internal search",
        "fast",
        "broken"
      ],
      "src_type": [
        "Press"
      ],
      "res_type": [
        "text"
      ],
      "tz": "Europe/Paris",
      "what_to_fix": "algolia api key needed in header"
    },
    "positive_test_search_term": ["musique"]
  },
  "https://gate.ahram.org.eg": {
    "extends": "https://english.ahram.org.eg",
    "headline_url": "https://gate.ahram.org.eg",
    "headline_selector": "h2.title_topnews ",
    "search_url": "https://gate.ahram.org.eg/UI/Front/Search.aspx?Text={}",
    "res_nb": ".SearchCount",
    "res_nb_re": [
      "(\\d+)$",
      "$1"
    ],
    "results": ".col-lg-9.p-right .col-lg-12.d-flex.border-m",
    "r_h1": ".col-lg-9.bg-White.bg-White-outer .title",
    "r_url": ".col-lg-9.bg-White.bg-White-oute a",
    "r_url_attr": "href",
    "r_dt": ".col-lg-9.bg-White.bg-White-outer .title",
    "r_dt_fmt_1": [
      "(\\d{4}/\\d{1,2}/\\d{1,2})",
      "$1"
    ],
    "r_txt": ".col-lg-9.bg-White.bg-White-oute p.bref",
    "tags": {
      "name": "Al Ahram",
      "lang": "ar",
      "tech": [
        "broken"
      ],
      "notes": "no date",
      "what_to_fix": "no dates on results"
    },
    "positive_test_search_term": ["ﻍﺯﺓ"],
    "r_by": null
  },
  "https://www.gulf-times.com": {
		"favicon_url": "https://www.gulf-times.com/images/favicon.png",
		"news_rss_url": "https://www.gulf-times.com/rss",
		"search_url": "https://www.gulf-times.com/search?query={}",
		"res_nb": "\\(\\d+? article",
		"results": ".gt-search-widget > .row > .article",
		"r_h1": "h2 > a",
		"r_url": "h2 > a",
		"r_url_attr": "href",
		"r_dt_fmt_1": [
			"^([^\\d]*)?(\\d+?)-(\\d+?)-(\\d{4}) (\\d+?:\\d+?:\\d+?)$",
			"$4-$3-$2 $5"
		],
		"r_txt": ".rus .catde",
		"r_img": "img",
		"tags": {
			"name": "Gulf Times",
			"lang": "en",
			"country": "qa",
			"themes": [
				"general"
			],
			"tech": [
				"many words",
				"one word",
				"fast",
				"broken"
			],
			"src_type": [
				"Press"
			],
			"res_type": "text",
			"tz": "Asia/Qatar",
			"notes": "no date on results"
		},
		"r_dt": ""
	},
  "https://www.hindutamil.in": {
    "search_url": "https://www.hindutamil.in/search/news/{}",
    "res_nb": ".form-check-inline.text-success",
    "res_nb_re": [
      "([0-9]+)",
      "$1"
    ],
    "results": ".card-outer",
    "r_h1": ".card-text",
    "r_url": ".link-black",
    "r_url_attr": "href",
    "r_dt": ".date.link-grey",
    "tags": {
      "name": "Hindu Tamil",
      "lang": "hi",
      "country": "in",
      "themes": [
        "general"
      ],
      "tech": [
        "many words",
        "one word",
        "fast",
        "broken"
      ],
      "src_type": [
        "Press",
        "Reference Press"
      ],
      "res_type": "text",
      "tz": "Asia/Kolkata",
      "what_to_fix": "gives random results if search in UTF8 english"
    },
    "headline_selector": ".link-white"
  },
  "https://www.hongkongfp.com": {
    "favicon_url": "https://hongkongfp.com/wp-content/uploads/2020/03/cropped-Favicon-HKFP-2.png",
    "news_rss_url": "https://hongkongfp.com/feed/",
    "type": "JSON",
    "search_url": "https://public-api.wordpress.com/rest/v1.3/sites/175101873/search?fields[0]=date&fields[1]=permalink.url.raw&fields[2]=tag.name.default&fields[3]=category.name.default&fields[4]=post_type&fields[5]=shortcode_types&fields[6]=has.image&fields[7]=image.url.raw&fields[8]=image.alt_text&highlight_fields[0]=title&highlight_fields[1]=content&highlight_fields[2]=comments&filter[bool][must][0][bool][must_not][0][term][post_type]=page&filter[bool][must][0][bool][must_not][1][term][post_type]=attachment&filter[bool][must][0][bool][must_not][2][term][post_type]=product&filter[bool][must][0][bool][must_not][3][term][post_type]=newspack_nl_cpt&filter[bool][must][0][bool][must_not][4][term][post_type]=newspack_lst_mktplce&query={}&sort=date_desc&size={#}",
    "search_url_web": "https://www.hongkongfp.com/?s=\"{}\"",
    "results": "results",
    "r_h1": "fields.title\\.default",
    "r_url": "fields.permalink\\.url\\.raw",
    "r_dt": "fields.date",
    "r_txt": "fields.excerpt\\.default",
    "r_img_src": "fields.image\\.url\\.raw.0",
    "r_img_alt": "fields.image\\.alt_text.0",
    "r_by": "fields.category\\.name\\.default",
    "tags": {
      "name": "Hong Kong Free Press",
      "lang": "en",
      "country": "hk",
      "themes": [
        "general"
      ],
      "tech": [
        "approx",
        "indep.",
        "broken"
      ],
      "src_type": [
        "Press"
      ],
      "res_type": "text",
      "notes": "Err 400 on public-api.wordpress.com ; internal search always empty"
    }
  },
  "https://www.hurriyetdailynews.com": {
    "favicon_url": "https://s.hurriyet.com.tr/hdnstatic/dist/images/hdn.ico",
    "headline_url": "https://www.hurriyetdailynews.com",
    "headline_selector": ".textSlide a",
    "search_url": "http://www.hurriyetdailynews.com/search/{}",
    "res_nb": "p.search-result-summary",
    "res_nb_re": [
      " (\\d+) ",
      "$1"
    ],
    "results": "div.row:nth-child(5) .col-md-4",
    "r_h1": ".search-result-box a .band h3",
    "r_url": ".search-result-box a",
    "r_url_attr": "href",
    "tags": {
      "name": "Hürriyet Daily News",
      "lang": "en",
      "country": "tr",
      "themes": [
        "general"
      ],
      "tech": [
        "broken",
        "many words",
        "one word",
        "internal search"
      ],
      "src_type": [
        "Press",
        "Reference Press"
      ],
      "res_type": "text",
      "tz": "Europe/Istanbul",
      "what_to_fix": "no dates on results"
    },
    "positive_test_search_term": ["france"]
  },
	"https://ifp.co.in": {
    "headline_url": "https://ifp.co.in",
    "headline_selector": ".top_heading a",
    "search_url": "https://www.ifp.co.in/results/?q={}",
    "results": "singgl-blog-post",
    "r_h1": "a.post-title h5",
    "r_url": "a.post-title",
    "r_url_attr": "href",
    "r_txt": ".post-data > p",
    "tags": {
      "name": "Imphal Free Press",
      "lang": "en",
      "country": "in",
      "themes": [
        "general"
      ],
      "tech": [
        "broken",
        "many words",
        "one word",
        "internal search",
        "slow"
      ],
      "src_type": "Press",
      "res_type": "text",
      "tz": "Asia/Kolkata",
      "what_to_fix": "no dates on results"
    },
    "positive_test_search_term":["climate change"],
    "r_dt": "",
    "r_by": ""
  },
  "https://www.jornada.com.mx/":{
    "favicon_url": "https://www.jornada.com.mx/theme/img/favicon.ico",
    "search_url": "https://www.jornada.com.mx/busqueda.html?s={}",   
    "results": "#resultsArticle",
    "r_h1": "h2 > title",
    "r_dt": ".time-pill",
    "tags": {
        "country": "es",
        "lang": "es",
        "name": "La Jornada",
        "res_type": [
            "text"
        ],
        "src_type": [
            "Press"
        ],
        "tech": [
            "one word",
            "broken"
        ],
        "themes": [
            "general",
            "politics"
        ],
        "tz": "America/Mexico_City"
    }
},
"https://www.kathimerini.gr": {
  "favicon_url": "https://www.kathimerini.gr/wp-content/themes/nxtheme/favicon.ico",
  "news_rss_url": "https://feeds.feedburner.com/kathimerini/DJpy",
  "search_url": "https://www.kathimerini.gr/search/{}/",
  "results": "#primanry .nx-article",
  "r_h1": ".title",
  "r_url": ".media-content a",
  "r_dt": ".meta-date",
  "r_dt_fmt_1": [
    "^(.+?)\\.(..)\\.(\\d{4}) / (..:..)$",
    "$3-$2-$1 $4"
  ],
  "r_txt": ".article-item p",
  "r_img": ".picture-main-block-image",
  "r_by": ".design_one_title_big .design_one_meta",
  "tags": {
    "name": "Kathimerini",
    "lang": "el",
    "country": "gr",
    "themes": [
      "general"
    ],
    "tech": [
      "one word",
      "many words",
      "fast",
      "broken"
    ],
    "src_type": [
      "Press",
      "Reference Press"
    ],
    "res_type": "text",
    "tz": "Europe/Athens"
  }
},
"https://kyivindependent.com": {
  "favicon_url": "https://kyivindependent.com/favicon.ico",
  "search_url": "https://kyivindependent.com/?s={}",
  "results": "div[class^='search_search__row__'] > article",
  "r_h1": "div > a",
  "r_url": "a",
  "r_url_attr": "href",
  "r_dt": "span[class^='post_postWideCard__mini_date__']",
  "r_txt": "div[class^='post_postWideCard__descr__']",
  "r_img": "img",
  "tags": {
    "name": "Kyiv independant",
    "lang": "en",
    "country": "uk",
    "themes": [
      "general"
    ],
    "tech": [
      "many words",
      "one word",
      "fast",
      "broken"
    ],
    "src_type": [
      "Press"
    ],
    "res_type": [
      "text"
    ],
    "tz": "Europe/Kyiv",
    "what_to_fix": "no results found, ajax search with full DB sent to client !?"
  },
  "news_rss_url": ""
},
  "http://www.laht.com": {
    "favicon_url": "http://laht.com/favicon.ico",
    "headline_url": "http://www.laht.com",
    "headline_selector": "http://www.laht.com",
    "search_url": "http://www.laht.com/searchresults.asp?criteria={}&CategoryId=11512",
    "results": ".menu4",
    "tags": {
      "name": "Latin American Herald Tribune",
      "lang": "en",
      "country": "ve",
      "themes": [
        "general"
      ],
      "tech": [
        "broken",
        "many words",
        "one word",
        "internal search"
      ],
      "src_type": "Press",
      "res_type": "text",
      "tz": "Europe/Caracas",
      "what_to_fix": "search broken onsite"
    },
    "positive_test_search_term": ["yellow vests"],
    "res_nb": ""
  },
  "https://www.laprovence.com": {
    "favicon_url": "https://www.laprovence.com/statics/images/favicon.ico",
    "type": "JSON",
    "search_url": "https://2t4yb30cmp-dsn.algolia.net/1/indexes/*/queries?x-algolia-agent=Algolia%20for%20JavaScript%20(4.0.0)%3B%20Browser%20(lite)%3B%20instantsearch.js%20(4.0.0)%3B%20JS%20Helper%20(0.0.0-5a0352a)&x-algolia-api-key=a1365e57b6c3d61679423a273f3eb02f&x-algolia-application-id=2T4YB30CMP",
    "search_url_web": "https://www.laprovence.com/recherche/{}",
    "method": "POST",
    "body": "{\"requests\":[{\"indexName\":\"prod_CONTENT\",\"params\":\"filters=status%20!%3D%200&hitsPerPage=20&attributesToSnippet=%5B%22body%3A30%22%2C%22header.title%3A20%22%5D&snippetEllipsisText=...&query={}&highlightPreTag=__ais-highlight__&highlightPostTag=__%2Fais-highlight__&page=0&maxValuesPerFacet=20&facets=%5B%22specs.categories%22%2C%22specs.cities%22%5D&tagFilters=\"}]}",
    "res_nb": "results.0.nbHits",
    "results": "results.0.hits",
    "r_h1": "header.title",
    "r_url": "share.url",
    "r_dt": "timestampCreated",
    "r_dt_fmt_1": [
      "^(.*)$",
      "$1000"
    ],
    "r_txt": "metas.teaser",
    "r_img_src": "images.0.url",
    "r_img_alt": "images.0.alt",
    "r_img_title": "images.0.legends",
    "tags": {
      "name": "La Provence",
      "lang": "fr",
      "country": "fr",
      "themes": [
        "general"
      ],
      "tech": [
        "approx",
        "fast",
        "broken"
      ],
      "src_type": [
        "Press",
        "Regional Daily Press"
      ],
      "res_type": "text",
      "tz": "Europe/Paris",
      "notes": "Not own search : Algolia"
    }
  },
  "https://www.lasavoie.fr": {
		"extends": "https://www.nordlittoral.fr",
		"favicon_url": "https://www.lasavoie.fr/sites/all/themes/enabootstrap_messager/Savoie.jpg",
		"search_url": "https://www.lasavoie.fr/archives/recherche?word={}&sort=date%20desc&datefilter=&form_build_id={%}&form_id=dpidamwidgets_damsimplesearch_content_type_search_form",
		"tags": {
			"name": "La Savoie",
			"tech": [
				"broken"
			]
		},
		"notes": "needs token"
	},
  "https://www.latribune.ca": {
		"favicon_url": "https://gcm-production2.omerloclients.com/assets/images/favicons/latribune-medium-6a5afd9001e89a8a830e2054e390ec11.png",
		"search_url": "https://www.latribune.ca/recherche?q={}&sort=date",
		"res_nb": "div[class^=\"_search__header-count_\"]",
		"res_nb_re": [
			"^\\((\\d*) r",
			"$1"
		],
		"results": "._search__results_1ynsee article",
		"r_h1": "h2",
		"r_url": "a",
		"r_url_attr": "href",
		"r_dt": "time",
		"r_dt_attr": "datetime",
		"r_img": "img",
		"r_img_src": "source",
		"r_img_src_attr": "srcset",
		"tags": {
			"name": "La Tribune",
			"lang": "fr",
			"country": "ca",
			"themes": [
				"general"
			],
			"tech": [
				"one word",
				"fast",
				"broken"
			],
			"src_type": [
				"Press"
			],
			"res_type": [
				"text"
			],
			"tz": "America/Toronto",
			"notes": "need cookies"
		}
	},
	"https://www.lesoleil.com": {
		"extends": "https://www.latribune.ca",
		"favicon_url": "https://gcm-production2.omerloclients.com/assets/images/favicons/lesoleil-medium-8cdfea0df07f8117e13e279a838c6ce9.png",
		"search_url": "https://www.lesoleil.com/recherche?q={}&sort=date",
		"tags": {
			"name": "Le Soleil"
		}
	},
	"https://www.lenouvelliste.ca": {
		"extends": "https://www.latribune.ca",
		"favicon_url": "https://gcm-production2.omerloclients.com/assets/images/favicons/lenouvelliste-medium-a18717d4a50e5d74bb423678a8e8e9e4.png",
		"search_url": "https://www.lenouvelliste.ca/recherche?q={}&sort=date",
		"tags": {
			"name": "Le Nouvelliste"
		}
	},
	"https://www.ledroit.com": {
		"extends": "https://www.latribune.ca",
		"favicon_url": "https://gcm-production2.omerloclients.com/assets/images/favicons/ledroit-medium-acc58203a6dd47a401d3e784e995d4b3.png",
		"search_url": "https://www.ledroit.com/recherche?q={}&sort=date",
		"tags": {
			"name": "Le Droit"
		}
	},
	"https://www.lequotidien.com": {
		"extends": "https://www.latribune.ca",
		"favicon_url": "https://gcm-production2.omerloclients.com/assets/images/favicons/lequotidien-medium-60f95acaf13974d3dcc14b0f6cc6f3b6.png",
		"search_url": "https://www.lequotidien.com/recherche?q={}&sort=date",
		"tags": {
			"name": "Le Quotidien"
		}
	},
	"https://www.lavoixdelest.ca": {
		"extends": "https://www.latribune.ca",
		"favicon_url": "https://gcm-production2.omerloclients.com/assets/images/favicons/lavoixdelest-medium-9abe2fe2e6d4f7ad86be7a0c5a7b927f.png",
		"search_url": "https://www.lavoixdelest.ca/recherche?q={}&sort=date",
		"tags": {
			"name": "La Voix de l'Est"
		}
	},
  "https://www.latribunerepublicaine.fr": {
		"extends": "https://www.nordlittoral.fr",
		"favicon_url": "https://www.latribunerepublicaine.fr/sites/all/themes/enabootstrap_messager/Tribune.jpg",
		"search_url": "https://www.latribunerepublicaine.fr/archives/recherche?word={}&sort=date%20desc&datefilter=&form_build_id={%}&form_id=dpidamwidgets_damsimplesearch_content_type_search_form",
		"tags": {
			"name": "La tribune républicaine de Bellegarde",
			"tech": [
				"broken"
			]
		},
		"notes": "needs token"
	},
  "https://lejournalminimal.fr": {
		"favicon_url": "https://lejournalminimal.fr/wp-content/uploads/2015/08/favicon.ico",
		"news_rss_url": "https://lejournalminimal.fr/feed/",
		"type": "XML",
		"search_url": "https://lejournalminimal.fr/search/{}/feed?orderby=post_date&order=desc",
		"search_url_web": "https://lejournalminimal.fr/?s={}&orderby=post_date&order=desc",
		"tags": {
			"name": "Le journal minimal",
			"lang": "fr",
			"country": "fr",
			"themes": [
				"general",
				"ecology"
			],
			"tech": [
				"one word",
				"fast",
				"indep.",
				"broken"
			],
			"src_type": [
				"Press"
			],
			"res_type": [
				"text"
			],
			"what_to_fix": "terminated on 2022-12-14"
		}
	},
  "https://www.lemessager.fr": {
		"extends": "https://www.lavoixdunord.fr",
		"favicon_url": "https://www.lemessager.fr/sites/all/themes/enabootstrap_messager/Messager.jpg",
		"search_url": "https://www.lemessager.fr/archives/recherche?word={}&sort=date%20desc&datefilter=anytime",
		"tags": {
			"name": "Le Messager",
			"tech": [
				"broken"
			]
		},
		"notes": "needs token"
	},
  "https://www.lepatriote.fr": {
    "headline_url": "https://www.lepatriote.fr",
    "headline_selector": "#content h3",
    "search_url": "https://www.lepatriote.fr/recherche-articles.html?search={}",
    "results": ".gsc-webResult",
    "r_h1": "a.gs-title",
    "r_url": "a.gs-title",
    "r_url_attr": "href",
    "r_dt": ".gs-snippet",
    "r_dt_fmt_1": [
      "^(\\w+) (\\d+), (\\d{4}) ...",
      "$3-{$2}-$1"
    ],
    "r_txt": ".gs-snippet",
    "tags": {
      "name": "Le Patriote Beaujolais",
      "lang": "fr",
      "country": "fr",
      "themes": [
        "general"
      ],
      "tech": [
        "many words",
        "one word",
        "fast",
        "internal search",
        "broken"
      ],
      "src_type": "Press",
      "res_type": [
        "text"
      ],
      "tz": "Europe/Paris",
      "what_to_fix": "Google search"
    }
  },
  "https://www.lepostillon.org": {
		"favicon_url": "https://www.lepostillon.org/plugins/postillon_skel/favicon.ico",
		"news_rss_url": "https://www.lepostillon.org/spip.php?page=backend",
		"search_url": "https://www.lepostillon.org/spip.php?page=recherche&recherche={}",
		"res_nb": "#pagination_articles",
		"res_nb_re": [
			"\\((\\d+?)\\)",
			"$1"
		],
		"results": ".liste.resultats.articles > .liste-items > .item",
		"r_h1": "a",
		"r_url": "a",
		"r_url_attr": "href",
		"r_dt": ".info:nth-of-type(2)",
		"r_dt_fmt_1": [
			"Printemps (confiné )?(\\d{4})",
			"$2-04-15"
		],
		"r_dt_fmt_2": [
			".té (\\d{4})",
			"$1-07-15"
		],
		"r_dt_fmt_3": [
			"Automne (\\d{4})",
			"$1-10-15"
		],
		"r_dt_fmt_4": [
			"Hiver (\\d{4})",
			"$1-01-15"
		],
		"r_dt_fmt_5": [
			"(^|-| |/ )([^ -]+?) (\\d{4})",
			"$3-{$2}-15"
		],
		"tags": {
			"name": "Le Postillon",
			"lang": "fr",
			"country": "fr",
			"themes": [
				"general",
				"investigation"
			],
			"tech": [
				"one word",
				"fast",
				"indep."
			],
			"src_type": [
				"Press",
				"Regional Daily Press"
			],
			"res_type": "text",
			"tz": "Europe/Paris",
			"notes": "Broken a la date du 28/06/2023"
		}
	},
  "https://www.lepoulpe.info": {
		"favicon_url": "https://www.lepoulpe.info/android-icon-192x192.png",
		"search_url": "https://www.lepoulpe.info/recherche?q={}&filter=last_publication",
		"res_nb": ".search-bar__results .text-brand-orange",
		"res_nb_re": [
			"^(\\d+?) ",
			"$1"
		],
		"results": ".grid-list .article-preview",
		"r_h1": "h4",
		"r_url": ".article-preview__excerpt a",
		"r_url_attr": "href",
		"r_img": "img",
		"tags": {
			"name": "Le Poulpe",
			"lang": "fr",
			"country": "fr",
			"themes": [
				"investigation"
			],
			"tech": [
				"many words",
				"one word",
				"fast",
				"indep.",
				"broken"
			],
			"src_type": [
				"Press",
				"Regional Daily Press"
			],
			"res_type": "text",
			"notes": "no date on results"
		},
		"r_dt": ""
	},
  "http://www.lessentiel.lu/fr": {
    "favicon_url": "http://www.lessentiel.lu/favicon.ico",
    "search_url": "http://www.lessentiel.lu/fr/rechercher/",
    "method": "POST",
    "body": "search_advanced=0&q={}&search_sortby=date",
    "results": "#search_wrapper > div:nth-child(2n+7)",
    "r_h1": "div.resulttext span.lead a",
    "r_url": "div.resulttext span.lead a",
    "r_url_attr": "href",
    "r_dt": "div.resulttext div.notes",
    "r_dt_fmt_1": [
      " (\\d+)/(\\d+)/(\\d+)",
      "$3-$2-$1"
    ],
    "r_txt": "div.resulttext span.lead+a",
    "r_img": ".thumb > a > img",
    "tags": {
      "name": "L'essentiel (Fr)",
      "lang": "fr",
      "country": "lu",
      "themes": [
        "general"
      ],
      "tech": [
        "one word",
        "slow",
        "broken"
      ],
      "src_type": [
        "Press"
      ],
      "res_type": "text",
      "tz": "Europe/Luxembourg",
      "notes": "no more search"
    }
  },
  "http://www.lessentiel.lu/de": {
    "extends": "http://www.lessentiel.lu/fr",
    "favicon_url": "http://www.lessentiel.lu/2010/img/navigation/logo2.png",
    "search_url": "http://www.lessentiel.lu/tools/suchen/",
    "tags": {
      "name": "L'essentiel (De)",
      "lang": "de"
    }
  },
  "https://www.lessorsavoyard.fr": {
		"extends": "https://www.lavoixdunord.fr",
		"search_url": "https://www.lessorsavoyard.fr/archives/recherche?word={}&sort=date%20desc&datefilter=&form_build_id={%}&form_id=dpidamwidgets_damsimplesearch_content_type_search_form",
		"tags": {
			"name": "L'Essor savoyard",
			"tech": [
				"broken"
			]
		},
		"notes": "needs token",
		"favicon_url": ""
	},
  "https://www.liberte-algerie.com": {
    "favicon_url": "https://www.liberte-algerie.com/favicon.png",
    "headline_url": "https://www.liberte-algerie.com/",
    "headline_selector": "#banner-slider ul li:first-child .headline a",
    "search_url": "https://www.liberte-algerie.com/recherche?sa={}",
    "res_nb": ".numb",
    "res_nb_re": [
      "^(\\d+)",
      "$1"
    ],
    "results": "#tab-PostsList li",
    "r_h1": ".title",
    "r_url": ".title",
    "r_url_attr": "href",
    "r_dt": ".date-heure",
    "r_dt_fmt_1": [
      "Le (\\d+)-(\\d+)-(\\d+) \\| (\\d+:\\d+)",
      "$3-$2-$1 $4"
    ],
    "r_txt": "p",
    "r_img": "img",
    "r_by": ".auteur",
    "tags": {
      "name": "Liberté Algérie",
      "lang": "fr",
      "country": "dz",
      "themes": [
        "general"
      ],
      "tech": [
        "one word",
        "many words",
        "internal search",
        "fast",
        "broken"
      ],
      "src_type": [
        "Press"
      ],
      "res_type": [
        "text"
      ],
      "tz": "Africa/Algiers",
      "what_to_fix": "dead newspaper"
    },
    "positive_test_search_term": [
      "gilets jaunes",
      "esperanto",
      "",
      "Gaulle"
    ]
  },
  "https://libgen.sci-hub.pm": {
		"search_url": "https://libgen.sci-hub.se/fulltext/{}/?type=phrase&order=year",
		"results": ".resItemBox",
		"r_h1": "h3[itemprop=name]",
		"r_url": "h3[itemprop=name] a",
		"r_url_attr": "href",
		"r_dt": ".property_year",
		"r_dt_fmt_1": [
			"Year: (\\d{2,4})",
			"$1"
		],
		"r_txt": ".ft_highlight",
		"r_by": ".authors",
		"tags": {
			"name": "SciHub (fulltext, articles)",
			"lang": "en",
			"country": "kz",
			"themes": [
				"science"
			],
			"tech": [
				"many words",
				"one word",
				"fast",
				"broken"
			],
			"src_type": [
				"Scientific Press"
			],
			"res_type": "text",
			"tz": "Asia/Qyzylorda",
			"notes": "in future there will be an option to browse and search Sci-Hub database, keep watching for updates"
		},
		"favicon_url": ""
	},
  "https://www.lobservateurdebeauvais.fr": {
		"extends": "https://www.lobservateur.fr",
		"favicon_url": "https://www.lecourrierdhirson.fr/wp-content/uploads/2021/06/cropped-BOUTON-HIRSON-SITE-1-1-32x32.jpg",
		"search_url": "https://www.lobservateurdebeauvais.fr/search/{}/feed?orderby=post_date&order=desc",
		"tags": {
			"name": "L'Observateur de Beauvais",
			"tech": "broken",
			"what_to_fix": "search is redirected to home page"
		}
	},
  "https://mb.com.ph": {
		"favicon_url": "https://mb.com.ph/wp-content/uploads/2019/09/cropped-favicon-32x32.png",
		"news_rss_url": "https://mb.com.ph/feed/",
		"type": "XML",
		"search_url": "https://mb.com.ph/search/{}/feed?orderby=post_date&order=desc",
		"search_url_web": "https://mb.com.ph/?s={}",
		"tags": {
			"name": "Manila Bulletin",
			"lang": "en",
			"country": "ph",
			"themes": [
				"general"
			],
			"tech": [
				"many words",
				"one word",
				"fast",
				"broken"
			],
			"src_type": [
				"Press",
				"Reference Press"
			],
			"res_type": "text",
			"notes": "needs cookies"
		}
	},
  "https://mbcn.com.ph": {
		"favicon_url": "https://mbcn.com.ph/wp-content/uploads/favicon1.ico",
		"type": "XML",
		"search_url": "https://mbcn.com.ph/search/{}/feed?orderby=post_date&order=desc",
		"search_url_web": "https://mbcn.com.ph/?s={}&x=0&y=0",
		"tags": {
			"name": "Manila Bulletin (cn)",
			"lang": "zh",
			"country": "ph",
			"themes": [
				"general"
			],
			"tech": [
				"many words",
				"one word",
				"fast",
				"broken"
			],
			"src_type": [
				"Press",
				"Reference Press"
			],
			"res_type": "text",
			"notes": "needs cookies"
		}
	},
	"https://nl.metrotime.be": {
    "extends": "https://fr.metrotime.be",
    "favicon_url": "https://nl.metrotime.be/wp-content/uploads/2016/10/BolNL-300x300-150x150.png",
    "headline_url": "https://nl.metrotime.be",
    "search_url": "https://nl.metrotime.be/search/\"{}\"/feed/rss2/",
    "tags": {
      "name": "Metro Time (nl)",
      "lang": "nl",
      "tech":["broken"],
      "what_to_fix": "Google search"
    }
  },
  "https://monde-diplomatique.gr": {
    "favicon_url": "https://monde-diplomatique.gr/wp-content/uploads/2019/11/sq_01-60x58.png",
    "type": "XML",
    "xml_type": "RSS_content:encoded",
    "headline_url": "https://monde-diplomatique.gr",
    "headline_selector": "#main a",
    "search_url": "https://monde-diplomatique.gr/?s={}&feed=rss2",
    "search_url_web": "https://monde-diplomatique.gr/?s={}",
    "tags": {
      "name": "Monde Diplo (gr)",
      "lang": "el",
      "country": "gr",
      "themes": [
        "general"
      ],
      "tech": [
        "many words",
        "one word",
        "internal search",
        "slow",
        "broken"
      ],
      "src_type": "Press",
      "res_type": "text",
      "tz": "Europe/Athens",
      "what_to_fix": "RSS files are bugged, malformed"
    }
  },
  "https://mondediplo.fi": {
		"favicon_url": "https://mondediplo.voima.fi/wp-content/uploads/2017/02/cropped-lmd-32x32.jpg",
		"news_rss_url": "https://mondediplo.fi/feed/",
		"search_url": "https://mondediplo.fi/?s={}",
		"results": "#tiles .tile",
		"r_h1": "h3 a",
		"r_url": "h3 a",
		"r_url_attr": "href",
		"r_dt": ".date",
		"r_dt_fmt_1": [
			"(\\d+?)\\.(\\d+?)\\.(\\d{4})$",
			"$3-$2-$1"
		],
		"r_txt": ".excerpt",
		"r_img": "img",
		"r_by": ".article-meta",
		"r_by_re": [
			"(.+?) \\d\\d",
			"$1"
		],
		"tags": {
			"name": "MondeDiplo.fi",
			"lang": "fi",
			"country": "fi",
			"themes": [
				"general"
			],
			"tech": [
				"many words",
				"one word",
				"slow",
				"indep.",
				"broken"
			],
			"src_type": [
				"Press"
			],
			"res_type": "text",
			"tz": "Europe/Helsinki",
			"what_to_fix": "No sort by date available, gives plenty empty results"
		}
	},
	"http://north-africa.com": {
    "favicon_url": "http://north-africa.com/wp-content/uploads/2019/04/cropped-N2-32x32.jpg",
    "type": "XML",
    "xml_type": "RSS",
    "search_url": "http://north-africa.com/search/{}/feed/",
    "search_url_web": "http://north-africa.com/?s={}",
    "tags": {
      "name": "North Africa (MEA Risk LLC)",
      "lang": "en",
      "country": "us",
      "themes": [
        "financial"
      ],
      "tech": [
        "many words",
        "one word",
        "internal search",
        "slow",
        "broken"
      ],
      "notes": "need web search, no more RSS",
      "src_type": [
        "Press",
        "Illustrated"
      ],
      "res_type": "text"
    },
    "positive_test_search_term":["europe", "Simon", "Charle", "ceuta"]
  },
	"https://www.neonmag.fr": {
    "favicon_url": "https://www.neonmag.fr/content/uploads/2017/01/cropped-apple-icon-32x32.png",
    "type": "XML",
    "xml_type": "RSS",
    "headline_url": "https://www.neomag.fr",
    "headline_selector": ".blog-post-title a",
    "search_url": "https://www.neonmag.fr/search/{}/feed/",
    "search_url_web": "https://www.neonmag.fr/?s={}",
    "tags": {
      "name": "Neon Mag",
      "lang": "fr",
      "country": "fr",
      "themes": [
        "life-style"
      ],
      "tech": [
        "broken",
        "one word",
        "internal search",
        "slow"
      ],
      "src_type": [
        "Magazine"
      ],
      "res_type": "text",
      "tz": "Europe/Paris",
      "what_to_fix": "RSS URL redirects to HTML page and no search engine"
    }
  },
  "https://oc.vikidia.org": {
		"extends": "https://fr.wikipedia.org",
		"favicon_url": "https://download.vikidia.org/vikidia/favicon.ico",
		"search_url": "https://oc.vikidia.org/w/index.php?title=Spécial:Recherche&profile=advanced&search={}&limit={#}&fulltext=1&profile=default&runsuggestion=0",
		"results": ".mw-search-results > li",
		"tags": {
			"name": "Vikidia (oc)",
			"lang": "oc",
			"tech": [
				"for kids",
				"fast",
				"many words",
				"one word",
				"indep.",
				"broken"
			],
			"src_type": [
				"Encyclo."
			],
			"notes": "Any single search won't work"
		}
	},
  "https://www.parismatch.com": {
    "favicon_url": "https://www.parismatch.com/favicon.png",
    "search_url": "https://www.parismatch.com/recherche/recherche-globale?text={}&contentTypeGroups%5B0%5D=article",
    "res_nb": ".nb-results span",
    "results": ".listing-rub .row",
    "r_h1": "div:nth-child(2) h2 a",
    "r_url": "div:nth-child(2) h2 a",
    "r_url_attr": "href",
    "r_dt": "div:nth-child(2) small",
    "r_dt_fmt_1": [
      "le (\\d+)/(\\d+)/(\\d+)",
      "$3-$2-$1"
    ],
    "r_txt": "div:nth-child(2) p:nth-child(4)",
    "r_img": "div:nth-child(1) img.img-responsive",
    "tags": {
      "name": "Paris Match",
      "lang": "fr",
      "country": "fr",
      "themes": [
        "general"
      ],
      "tech": [
        "approx",
        "broken"
      ],
      "src_type": [
        "Press"
      ],
      "res_type": "text",
      "tz": "Europe/Paris",
      "notes": "no more search"
    }
  },
	"https://www.parismatch.com/Photos": {
    "extends": "https://www.parismatch.com",
    "favicon_url": "https://www.parismatch.com/favicon.png",
    "search_url": "https://www.parismatch.com/recherche/recherche-globale?text={}&contentTypeGroups%5B0%5D=slideshow",
    "tags": {
      "name": "Paris Match - Image",
      "res_type": "image"
    }
  },
  "https://www.parismatch.com/Videos": {
    "extends": "https://www.parismatch.com",
    "favicon_url": "https://www.parismatch.com/favicon.png",
    "search_url": "https://www.parismatch.com/recherche/recherche-globale?text={}&contentTypeGroups%5B0%5D=video",
    "tags": {
      "name": "Paris Match - Vidéo",
      "res_type": "video"
    }
  },
  "https://persian.aawsat.com": {
		"extends": "https://english.aawsat.com",
		"favicon_url": "https://archive.aawsat.com/favicon.ico",
		"search_url": "https://archive.aawsat.com/drresultsarfarsi.asp",
		"search_url_web": "https://archive.aawsat.com/drresultsarfarsi.asp",
		"tags": {
			"name": "Asharq Al-Awsat (fa)",
			"lang": "fa",
			"tech": [
				"broken"
			]
		},
		"positive_test_search_term": [
			"2000"
		]
	},
  "https://www.philstar.com": {
    "extends": "https://www.thehindu.com",
    "favicon_url": "https://www.philstar.com/images/Home/favicon.ico",
    "type": "JSON",
    "headline_url": "https://www.philstar.com",
    "headline_selector": ".topNews_title a",
    "search_url": "https://zdwidget3-bs.sphereup.com/Search?url=https://www.philstar.com/&isDescending=false&sortOn=&accountId=73376741&filters=%5B%5D&sessionId=undefined&limit={#}&page=0&moreContactsAvailable=true&query={}",
    "res_nb": "TotalContacts",
    "results": "Contacts",
    "r_h1": "Name",
    "r_url": "Url",
    "r_dt": "Date",
    "r_txt": "Snippet",
    "r_img_src": "Image",
    "r_by": "Author",
    "tags": {
      "name": "The Philippine Star",
      "lang": "en",
      "country": "ph",
      "tech": [
        "broken"
      ],
      "res_type": "text",
      "tz": "Asia/Manila",
      "what_to_fix": "Give the html to render"
    },
    "positive_test_search_term":["bush"]
  },
  "https://www.4revues.fr/xxi": {
    "favicon_url": "http://www.revue21.fr/wp-content/themes/revue21/favicon.png",
    "type": "XML",
    "xml_type": "RSS",
    "headline_url": "https://www.4revues.fr/xxi/",
    "headline_selector": "#zoomsur-main h1 a",
    "search_url": "https://revue21.fr/search/\"{}\"/feed/rss2/",
    "search_url_web": "https://www.4revues.fr/xxi/recherche.html?search={}",
    "tags": {
      "name": "Revue XXI",
      "lang": "fr",
      "country": "fr",
      "themes": [
        "docu."
      ],
      "tech": [
        "many words",
        "one word",
        "internal search",
        "slow",
        "broken"
      ],
      "src_type": [
        "Magazine"
      ],
      "res_type": "text",
      "tz": "Europe/Paris",
      "notes": "no date + no rss anymore"
    },
    "positive_test_search_term":["gilets jaunes"]
  },
  "https://reporterre.net": {
		"favicon_url": "https://reporterre.net/favicon.ico",
		"news_rss_url": "https://reporterre.net/spip.php?page=backend-simple",
		"search_url": "https://reporterre.net/spip.php?page=recherche#recherche",
		"method": "POST",
		"body": "page=rechercher&recherche={}&periode=4000&id_rubrique=&tri=date",
		"res_nb": ".titre_page",
		"res_nb_re": [
			"^(\\d+?) résultats",
			"$1"
		],
		"results": ".ajaxbloc .divblock .article_contenu",
		"r_h1": ".titre",
		"r_url_xpath": "./@href",
		"r_dt": ".datation_article",
		"r_dt_fmt_1": [
			"^([^\\d]*)?(\\d+?)e?r? (.+?) (\\d{4})$",
			"$4-{$3}-$2"
		],
		"r_txt": ".pol18.cache_767",
		"tags": {
			"name": "Reporterre",
			"lang": "fr",
			"country": "fr",
			"themes": [
				"ecology",
				"investigation"
			],
			"tech": [
				"approx",
				"one word",
				"fast",
				"indep.",
				"broken"
			],
			"src_type": [
				"Press"
			],
			"res_type": "text",
			"tz": "Europe/Paris"
		}
	},
  "https://www.revue.lu": {
		"favicon_url": "https://www.revue.lu/wp-content/uploads/2014/07/favicon.png",
		"news_rss_url": "https://www.revue.lu/feed/",
		"type": "XML",
		"search_url": "https://www.revue.lu/search/{}/feed?orderby=post_date&order=desc",
		"search_url_web": "https://www.revue.lu/?s={}",
		"tags": {
			"name": "Revue (lu)",
			"lang": "fr",
			"country": "lu",
			"themes": [
				"general"
			],
			"tech": [
				"one word",
				"slow",
				"broken"
			],
			"src_type": [
				"Magazine"
			],
			"res_type": "text",
			"what_to_fix": "search feature disappeared"
		}
	},
  "http://www.rfi.fr": {
    "headline_url": "http://www.rfi.fr",
    "headline_selector": "h3.highlighted-item-title a",
    "search_url": "http://www.rfi.fr/recherche/?Search%5Bterm%5D=\"{}\"&Search%5Bpage%5D=1",
    "res_nb": ".search-summary-results",
    "res_nb_re": [
      " (\\d+) résultats",
      "$1"
    ],
    "results": "#tagNewsFeed li",
    "r_h1": "h3 a",
    "r_url": "a.media",
    "r_url_attr": "href",
    "r_dt": "time",
    "r_dt_fmt_1": [
      "^(\\d+)/(\\d+)/(\\d{4})$",
      "$3-$2-$1"
    ],
    "r_by": ".tag",
    "tags": {
      "name": "Radio France International",
      "lang": "fr",
      "country": "fr",
      "themes": [
        "general"
      ],
      "tech": [
        "broken",
        "internal search",
        "fast"
      ],
      "src_type": [
        "Press",
        "Radio"
      ],
      "res_type": "text",
      "tz": "Europe/Paris"
    },
    "search_url_pb": "No search feature"
  },
  "https://riotimesonline.com": {
    "favicon_url": "https://www.riotimesonline.com/wp-content/uploads/2013/11/Favicon.png",
    "type": "XML",
    "xml_type": "RSS",
    "headline_url": "https://riotimesonline.com",
    "headline_selector": "h3.entry-title a",
    "search_url": "https://riotimesonline.com/search/{}/feed/",
    "search_url_web": "https://riotimesonline.com/?s={}",
    "tags": {
      "name": "Rio Times Online",
      "lang": "en",
      "country": "br",
      "themes": [
        "general"
      ],
      "tech": [
        "many words",
        "one word",
        "internal search",
        "slow",
        "broken"
      ],
      "src_type": [
        "Press",
        "Illustrated"
      ],
      "res_type": "text",
      "what_to_fix": "cloudflare DDOS protected"
    },
    "positive_test_search_term": ["europe", "Charlie hebdo", "Francois Hollande", "Ricardo Jaime"]
  },
  "https://www.rodong.rep.kp/en": {
		"favicon_url": "https://www.rodong.rep.kp/en/images/page_top_mark.PNG",
		"search_url": "https://www.rodong.rep.kp/en/index.php?strPageID=SF01_03_02&stit={}",
		"res_nb": ".ListNewsTitleLeft",
		"res_nb_re": [
			".*? : (\\d+?)",
			"$1"
		],
		"results": ".ListNewsLineContainer",
		"r_h1": ".ListNewsLineTitleW a",
		"r_url": "a",
		"r_url_attr": "href",
		"r_url_re": [
			"\\('([^)]+?)'\\)",
			"/en/$1"
		],
		"r_dt": ".ListNewsLineDate",
		"r_dt_fmt_1": [
			"^(\\d{4}).(\\d{2}).(\\d{2})",
			"$1-$2-$3"
		],
		"tags": {
			"name": "Rodong Sinmun (en)",
			"lang": "en",
			"country": "kp",
			"themes": [
				"general"
			],
			"tech": [
				"many words",
				"one word",
				"slow",
				"broken"
			],
			"src_type": [
				"Press"
			],
			"res_type": "text",
			"tz": "Asia/Pyongyang",
			"notes": "URL pattern changed (looks like ciphered or tokenized)"
		},
		"positive_test_search_term": "2000"
	},
	"https://www.rodong.rep.kp/ko/index.php": {
		"extends": "https://www.rodong.rep.kp/en",
		"favicon_url": "https://www.rodong.rep.kp/ko/images/page_top_mark.PNG",
		"search_url": "https://www.rodong.rep.kp/ko/index.php?strPageID=SF01_03_02&scnt={}&imf=1",
		"tags": {
			"name": "Rodong Sinmun (ko)",
			"lang": "ko",
			"tz": "Asia/Pyongyang"
		},
		"positive_test_search_term": [
			"1"
		]
	},
	"https://www.rodong.rep.kp/cn/index.php": {
		"extends": "https://www.rodong.rep.kp/en",
		"favicon_url": "https://www.rodong.rep.kp/cn/images/page_top_mark.PNG",
		"search_url": "https://www.rodong.rep.kp/cn/index.php?strPageID=SF01_03_02&scnt={}&imf=1",
		"tags": {
			"name": "Rodong Sinmun (cn)",
			"lang": "zh",
			"tz": "Asia/Pyongyang"
		},
		"positive_test_search_term": [
			"1"
		],
		"news_rss_url": ""
	},
  "https://rotes.postda.mn": {
		"extends": "https://www.mobilizon.fr",
		"favicon_url": "https://rotes.postda.mn/img/icons/favicon.svg",
		"search_url": "https://rotes.postda.mn/api",
		"search_url_web": "https://rotes.postda.mn/search?term={}",
		"tags": {
			"name": "rotes.postda.mn (Mobilizon)",
			"lang": "de",
			"country": "de",
			"tech": [
				"broken"
			],
			"nodes": "trouble finding that site"
		}
	},
  "https://www.rtl.fr": {
    "favicon_url": "https://www.rtl.fr/favicon.ico",
    "headline_url": "https://www.rtl.fr/",
    "headline_selector": ".row.mdl-fix .col-lg-8 a.post-link",
    "h_title": ".row.mdl-fix .col-lg-8 a.post-link h1.post-title",
    "search_url": "https://www.rtl.fr/recherche?query={}&type=ALL&order=DATE",
    "res_nb": ".search-header-result span",
    "res_nb_re": [
      " (\\d+) r",
      "$1"
    ],
    "results": ".search-result",
    "r_h1": ".result-title",
    "r_url": ".result-link",
    "r_url_attr": "href",
    "r_dt": ".slot-date",
    "r_dt_fmt_1": [
      "^(\\d{2})/(\\d{2})/(\\d{2}) (\\d{2})h(\\d{2})",
      "$2/$1/$3 $4:$5"
    ],
    "r_txt": ".result-info",
    "r_img": ".result-pic",
    "r_img_src": ".result-pic",
    "r_img_src_attr": "data-src",
    "tags": {
      "name": "RTL",
      "lang": "fr",
      "country": "fr",
      "themes": [
        "general"
      ],
      "tech": [
        "approx",
        "internal search",
        "broken"
      ],
      "src_type": [
        "Press"
      ],
      "res_type": [
        "text"
      ],
      "tz": "Europe/Paris",
      "notes": "no date"
    }
  },
  "https://www.sciencedirect.com": {
    "favicon_url": "https://sdfestaticassets-eu-west-1.sciencedirectassets.com/shared-assets/18/images/favSD.ico",
    "type": "JSON",
    "headline_url": "https://www.sciencedirect.com",
    "headline_selector": ".browse-subject-popular a",
    "search_url": "https://www.sciencedirect.com/search/api?qs={}&sortBy=date&hostname=www.sciencedirect.com&navigation=true",
    "search_url_web": "https://www.sciencedirect.com/search?qs={}&sortBy=date",
    "res_nb": "resultsFound",
    "results": "searchResults",
    "r_h1": "title",
    "r_url": "link",
    "r_dt": "sortDate",
    "r_by": "authors",
    "r_by_attr": "name",
    "tags": {
      "name": "Science Direct (Elsevier)",
      "lang": "en",
      "country": "gb",
      "themes": [
        "science"
      ],
      "tech": [
        "broken",
        "internal search",
        "many words",
        "one word",
        "fast"
      ],
      "what_to_fix": "need token",
      "src_type": [
        "Scientific Press"
      ],
      "res_type": "text",
      "tz": "Europe/London"
    },
    "positive_test_search_term": ["blob"]
  },
  "https://www.sciencesetavenir.fr": {
    "headline_url": "https://www.sciencesetavenir.fr",
    "headline_selector": ".alaune .txt a",
    "search_url": "https://www.sciencesetavenir.fr/search/{}/",
    "res_nb": "span.link-more",
    "res_nb_re": [
      " (\\d+) r.sultats",
      "$1"
    ],
    "results": ".main-content section.bloc div.item",
    "r_h1": ".txt h2",
    "r_url": "a",
    "r_url_attr": "href",
    "r_dt": "p.date",
    "r_dt_fmt_1": [
      "^(\\d+) (.+)\\. (\\d{4})$",
      "$3-{$2}-$1"
    ],
    "r_txt": ".txt p",
    "tags": {
      "name": "Sciences et Avenir",
      "lang": "fr",
      "country": "fr",
      "themes": [
        "science"
      ],
      "tech": [
        "internal search",
        "many words",
        "one word",
        "fast",
        "broken"
      ],
      "src_type": [
        "Magazine"
      ],
      "res_type": "text",
      "tz": "Europe/Paris"
    },
    "positive_test_search_term": ["blob"]
  },
  "https://www.sciencemag.org": {
    "favicon_url": "https://www.sciencemag.org/sites/default/files/favicon.ico",
    "method": "POST",
    "headline_url": "https://www.sciencemag.org",
    "headline_selector": ".media__headline a",
    "search_url": "https://search.sciencemag.org/?searchTerm={}&order=newest&limit=textFields&pageSize={#}&&",
    "res_nb": ".ss-summary",
    "res_nb_re": [
      " (\\d+) results",
      "$1"
    ],
    "results": "ul.headline-list > li",
    "r_h1": "h2",
    "r_url": "h2 a",
    "r_url_attr": "href",
    "r_dt": "p.ss-byline",
    "r_dt_fmt_1": [
      "^([A-Z]\\w+ \\d+\\w+, \\d{4})$",
      "$1"
    ],
    "r_by": "p.ss-byline",
    "r_by_re": [
      "^By (.*) |",
      "$1"
    ],
    "tags": {
      "name": "Science Mag",
      "lang": "en",
      "country": "us",
      "themes": [
        "science"
      ],
      "tech": [
        "broken",
        "internal search",
        "many words",
        "one word",
        "fast"
      ],
      "src_type": [
        "Scientific Press"
      ],
      "res_type": "text",
      "tz": "America/New_York",
      "what_to_fix": "POST request to AMZN web with sciencemag as referrer…"
    },
    "positive_test_search_term": ["blob"]
  },
  "https://www.smh.com.au": {
    "extends": "https://www.theage.com.au",
    "favicon_url": "https://www.smh.com.au/favicons/smh.ico",
    "headline_url": "https://www.smh.com.au",
    "search_url": "https://www.smh.com.au/search?text={}",
    "res_nb": "header h2",
    "res_nb_re": [
      "\\s([\\d,]+)\\s+results",
      "$1"
    ],
    "r_by": "span[itemprop=\"name\"",
    "tags": {
      "name": "The Sydney Morning Herald",
      "tech": [
        "broken",
        "many words",
        "one word",
        "internal search",
        "fast"
      ],
      "what_to_fix": "same results than The Age"
    }
  },
	"https://www.spiegel.de/international/world": {
    "favicon_url": "https://cdn.prod.www.spiegel.de/public/spon/images/icons/favicon.ico",
    "headline_url": "https://www.spiegel.de/international/world",
    "headline_selector": "section[data-area=article-teaser-list] article header h2 a",
    "search_url": "https://www.spiegel.de/search/?suchbegriff={}&seite=1",
    "res_nb": "span[data-search-result-count]",
    "results": "section[data-search-results] article[data-search-prototype-news]",
    "r_h1": "h2 > a > span:nth-of-type(2)",
    "r_url": "h2 > a",
    "r_url_attr": "href",
    "r_dt": "section a span:nth-of-type(2)",
    "r_dt_fmt_1": [
      "\\s(\\d+)\\.(\\d+)\\.(\\d{4}) - ([0-9:]+)",
      "$3-$2-$1 $4"
    ],
    "r_txt": "section a span",
    "r_by": "section a span:nth-of-type(2)",
    "r_by_re": [
      "• (.*)$",
      "$1"
    ],
    "tags": {
      "name": "Der Spiegel",
      "lang": "en",
      "country": "de",
      "themes": [
        "general"
      ],
      "tech": [
        "many words",
        "one word",
        "internal search",
        "fast",
        "broken"
      ],
      "src_type": [
        "Press",
        "Reference Press"
      ],
      "res_type": "text",
      "tz": "Europe/Berlin",
      "what_to_fix": "no cookies no results"
    }
  },
  "https://www.sudradio.fr": {
    "type": "XML",
    "xml_type": "RSS",
    "headline_url": "https://www.sudradio.fr",
    "headline_selector": ".qt-item-header h3 a",
    "search_url": "https://www.sudradio.fr/search/\"{}\"/feed/rss2/",
    "search_url_web": "https://www.sudradio.fr/?s={}",
    "tags": {
      "name": "SudRadio.fr",
      "lang": "fr",
      "country": "fr",
      "themes": [
        "general"
      ],
      "tech": [
        "broken",
        "many words",
        "one word",
        "internal search",
        "fast"
      ],
      "src_type": [
        "Radio"
      ],
      "res_type": "text",
      "tz": "Europe/Paris",
      "what_to_fix": "RSS files results are empty files, bug reported upstream"
    }
  },
  "https://www.telerama.fr": {
    "favicon_url": "https://www.telerama.fr/dist/assets/img/logos/favicon-prd.ico",
    "headline_url": "https://www.telerama.fr/",
    "headline_selector": ".BlockMEA__Content .article__meta-container h1.article__title",
    "search_url": "https://www.telerama.fr/recherche/recherche.php?query={}&f%5B0%5D=tr_type%3AArticles",
    "res_nb": ".search--resultsnumber",
    "res_nb_re": [
      "^(\\d+) r",
      "$1"
    ],
    "results": "li.block--item",
    "r_h1": "h3.item--title a",
    "r_url": "h3.item--title a",
    "r_url_attr": "href",
    "r_txt": "p.item--excerpt",
    "r_img": "item-image",
    "tags": {
      "name": "Télérama",
      "lang": "fr",
      "country": "fr",
      "themes": [
        "général"
      ],
      "tech": [
        "many words",
        "one word",
        "approx",
        "internal search",
        "broken"
      ],
      "src_type": [
        "Press"
      ],
      "res_type": [
        "text"
      ],
      "tz": "Europe/Paris",
      "what_to_fix": "no dates on results"
    }
  },
  "https://www.thehindu.com": {
    "favicon_url": "https://www.thehindu.com/thfavicon.ico",
    "news_rss_url": "https://www.thehindu.com/feeder/default.rss",
    "search_url": "https://www.thehindu.com/search/?q={}&sort=newest",
    "res_nb": "#scrolladvanced > .searchresults > .section-header-container >.section-controls",
    "res_nb_re": [
      "total (\\d+)$",
      "$1"
    ],
    "results": "#scrolladvanced > .searchresults > .row.clear .story-card",
    "r_h1": ".story-card-news > a",
    "r_url": ".story-card-news > a",
    "r_url_attr": "href",
    "r_dt": ".dateline",
    "r_txt": ".story-card-33-text",
    "r_img": ".story-card-img > img",
    "r_by": ".story-card-33-author-name",
    "tags": {
      "name": "The Hindu",
      "lang": "en",
      "country": "in",
      "themes": [
        "general"
      ],
      "tech": [
        "many words",
        "one word",
        "fast",
        "broken"
      ],
      "src_type": [
        "Press",
        "Reference Press"
      ],
      "res_type": "text",
      "tz": "Asia/Kolkata",
      "notes": "not own search (G)"
    }
  },
	"https://www.thehindu.com/photo": {
    "extends": "https://www.thehindu.com",
    "search_url": "https://www.thehindu.com/search/?q={}&type=gallery&activeTab=tabGalleries",
    "tags": {
      "name": "The Hindu (photo)",
      "res_type": "image"
    }
  },
  "https://www.thehindu.com/audio": {
    "extends": "https://www.thehindu.com",
    "search_url": "https://www.thehindu.com/search/?q={}&type=embedAudio&activeTab=tabAudios",
    "tags": {
      "name": "The Hindu (audio)",
      "res_type": "audio"
    }
  },
  "https://www.thehindu.com/video": {
    "extends": "https://www.thehindu.com",
    "search_url": "https://www.thehindu.com/search/?q={}&type=video&type=brightcoveVideo&type=youtubeVideo&type=embedYoutube&activeTab=tabVideos",
    "tags": {
      "name": "The Hindu (video)",
      "res_type": "video"
    }
  },
  "https://timesofindia.indiatimes.com/videos": {
		"extends": "https://timesofindia.indiatimes.com",
		"search_url": "https://timesofindia.indiatimes.com/topic/{}/videos",
		"res_nb": "a#Videos > span#Videos",
		"tags": {
			"name": "The Times of India (videos)",
			"tech": [
				"broken"
			],
			"res_type": "video",
			"what_to_fix": "no date on results"
		}
	},
  "https://urbania.fr": {
		"favicon_url": "https://urbania.fr/static/media/favicon/france.png",
		"search_url": "https://urbania.fr/recherche?q={}",
		"raw_rep_re": [
			"<script id=\"root-props\" type=\"application/json\">({.+?})</script>",
			"$1"
		],
		"r_h1": "h2",
		"r_url": "h2 > a",
		"r_url_attr": "href",
		"r_dt": "div[class^=article-metadata_time__] > div",
		"tags": {
			"name": "Urbania",
			"lang": "fr",
			"country": "fr",
			"themes": [
				"general"
			],
			"tech": [
				"approx",
				"slow",
				"indep.",
				"broken"
			],
			"src_type": [
				"Press"
			],
			"res_type": "text",
			"tz": "Europe/Paris",
			"what_to_fix": "search terms are used in JSON keys"
		},
		"results": ""
	},
  "https://www.vsd.fr/": {
		"favicon_url": "https://vsd.fr/templates/shaper_helix3/images/favicon.ico",
		"search_url": "https://vsd.fr/index.php?option=com_googlesearch_cse&n=30&view=googlesearchs&Itemid=180&cx=017945829175919733171%3Ainms_cw9gse&cof=FORID%3A11&ie=ISO-8859-1&q={}&sa=%5Ce605",
		"results": ".row",
		"r_h1": "h1",
		"r_url": "a",
		"r_url_attr": "href",
		"r_dt": ".Card-date",
		"r_dt_fmt_1": [
			"(\\d{1,2})/(.{2})/(\\d{4})",
			"$3-{$2}-$1"
		],
		"r_img": "img",
		"tags": {
			"name": "VSD",
			"lang": "fr",
			"country": "fr",
			"themes": [
				"general",
				"journalism"
			],
			"tech": [
				"approx",
				"fast",
				"broken"
			],
			"src_type": [
				"Press"
			],
			"res_type": [
				"text"
			],
			"tz": "Europe/Paris"
		}
	},
	"https://www.washingtonpost.com": {
    "favicon_url": "https://www.washingtonpost.com/favicon.ico",
    "type": "JSON",
    "search_url": "https://sitesearchapp.washingtonpost.com/sitesearch-api/v2/search.json?query={}&count={#}&sort=&sort=displaydatetime&desc&spellcheck=false&highlight.on=true&hightlight.f_txtpets=1&highlight.fields=headline,body&facets.fields={!ex=include}contenttype,{!ex=include}name",
    "search_url_web": "https://www.washingtonpost.com/newssearch/?query={}&btn-search=&sort=Date",
    "res_nb": "results.total",
    "results": "results.documents",
    "r_h1": "headline",
    "r_url": "contenturl",
    "r_dt": "pubdatetime",
    "r_txt": "blurb",
    "r_by": "byline",
    "tags": {
      "name": "Washington Post",
      "lang": "en",
      "country": "us",
      "themes": [
        "general",
        "politics"
      ],
      "tech": [
        "many words",
        "one word",
        "exact",
        "fast",
        "broken"
      ],
      "src_type": [
        "Press",
        "Reference Press"
      ],
      "res_type": "text",
      "tz": "America/New_York",
      "notes": "no more internal search"
    }
  },
  "https://www.webdo.tn/fr": {
		"favicon_url": "https://www.webdo.tn/favicons/android-icon-192x192.png",
		"news_rss_url": "https://www.webdo.tn/fr/rss",
		"search_url": "https://www.webdo.tn/fr/search",
		"method": "POST",
		"body": "_token=dDwarKUkIhbSNjkTO6MHwlMK4xGSfHglH5uwPCIb&q={}",
		"body_com": "q={}",
		"results": ".posts-listing .post",
		"r_h1": "h3",
		"r_url": "h3>a",
		"r_url_attr": "href",
		"r_dt": "time",
		"r_dt_fmt_1": [
			" (\\d{2}) ([^ ]+?) (\\d{4}) - (..:..)$",
			"$3-{$2}-$1 $4"
		],
		"r_img": "img",
		"tags": {
			"name": "Webdo (tn - fr)",
			"lang": "fr",
			"country": "tn",
			"themes": [
				"general"
			],
			"tech": [
				"many words",
				"one word",
				"fast",
				"broken"
			],
			"src_type": [
				"Press"
			],
			"res_type": [
				"text"
			],
			"tz": "Africa/Tunis",
			"notes": "needs referer ?"
		}
	},
  "https://wikileaks.org": {
		"favicon_url": "https://wikileaks.org/IMG/favicon.ico",
		"search_url": "https://search.wikileaks.org/?exact_phrase={}&order_by=newest_document_date#results",
		"res_nb": ".order-by .total-count > span",
		"res_nb_re": [
			"^([\\d,]+?) ",
			"$1"
		],
		"results": ".result",
		"r_h1": ".result .info h4",
		"r_url": ".result .info h4 a",
		"r_url_attr": "href",
		"r_dt": ".dates > .date:nth-child(2) span",
		"r_txt": ".excerpt",
		"tags": {
			"name": "Wikileaks (exact)",
			"lang": "en",
			"country": "gb",
			"themes": [
				"general"
			],
			"tech": [
				"many words",
				"one word",
				"fast",
				"indep.",
				"broken"
			],
			"src_type": [
				"Doc."
			],
			"res_type": "text",
			"tz": "Europe/London"
		}
	},
	"https://wikileaks.org/and": {
		"extends": "https://wikileaks.org",
		"favicon_url": "https://wikileaks.org/and/favicon.ico",
		"search_url": "https://search.wikileaks.org/?query={}&order_by=newest_document_date#results",
		"tags": {
			"name": "Wikileaks (AND)",
			"tech": [
				"many words",
				"one word",
				"fast"
			]
		}
	},
	"https://wikileaks.org/or": {
		"extends": "https://wikileaks.org",
		"favicon_url": "https://wikileaks.org/or/favicon.ico",
		"search_url": "https://search.wikileaks.org/?any_of={}&order_by=newest_document_date#results",
		"tags": {
			"name": "Wikileaks (OR)",
			"tech": [
				"one word",
				"fast"
			]
		}
	},
"https://www.wsj.com": {
  "headline_url": "https://www.wsj.com",
  "headline_selector": "h3.reset > a",
  "search_url": "https://www.wsj.com/search?query={}&mod=searchresults_viewallresults",
  "res_nb": ".results-count",
  "res_nb_re": [
    "[^ ]* [^ ]* (.*)",
    "$1"
  ],
  "results": ".items.hedSumm .headline-container",
  "r_h1": ".headline",
  "r_url": ".headline a",
  "r_url_attr": "href",
  "r_dt": ".date-stamp-container",
  "r_dt_fmt_1": [
    "([A-Z][a-z]+)\\. (\\d+), (\\d+) ([\\d:]+) (pm|am) ET",
    "$1 $2 $3 $4 $5"
  ],
  "r_txt": ".summary-container",
  "r_by": ".byline > span",
  "r_by_re": [
    "By (.*)",
    "$1"
  ],
  "tags": {
    "name": "Wall Street Journal",
    "lang": "en",
    "country": "us",
    "themes": [
      "financial"
    ],
    "tech": [
      "many words",
      "one word",
      "internal search",
      "fast",
      "broken"
    ],
    "src_type": "Press",
    "res_type": "text",
    "tz": "America/New_York",
    "what_to_fix": "results not in GET answer, async JSON ?"
  },
  "positive_test_search_term": ["europe"]
},
"https://yewtu.be": {
  "favicon_url": "https://yewtu.be/favicon-32x32.png",
  "type": "JSON",
  "search_url": "https://yewtu.be/api/v1/search/?q={}&type=video",
  "search_url_web": "https://yewtu.be/search?q={}&type=video",
  "r_h1": "title",
  "r_url": "videoId",
  "r_url_re": [
    "^(.*?)$",
    "https://yewtu.be/watch?v=$1"
  ],
  "r_dt": "publishedText",
  "r_dt_fmt_1": [
    "^(.*?)s? ago$",
    "$1"
  ],
  "r_txt": "description",
  "r_img_src": "videoThumbnails.3.url",
  "r_by": "author",
  "tags": {
    "name": "Yewtu.be Invidious",
    "lang": "en",
    "country": "nl",
    "themes": [
      "general"
    ],
    "tech": [
      "many words",
      "one word",
      "broken"
    ],
    "src_type": [
      "Social network"
    ],
    "res_type": [
      "video"
    ],
    "tz": "America/Amsterdam",
    "notes": "what's the problem ?"
  },
  "results": ""
},
"https://www.zeit.de/index": {
  "search_url": "https://www.zeit.de/zustimmung?url=https%3A%2F%2Fwww.zeit.de%2Fsuche%2Findex%3Fq%3D{}%26type%3Darticle",
  "redir_url": "https://www.zeit.de/suche/index?q={}&type=article",
  "res_nb": ".search-counter__hits",
  "res_nb_re": [
    "^([\\d.]+?) ",
    "$1"
  ],
  "results": ".zon-teaser-standard",
  "r_h1": ".zon-teaser-standard__title",
  "r_url": ".zon-teaser-standard__combined-link",
  "r_url_attr": "href",
  "r_dt": "time",
  "r_dt_attr": "datetime",
  "r_txt": ".zon-teaser-standard__text",
  "r_img_src": ".zon-teaser-standard__media-item",
  "r_img_src_attr": "data-src",
  "r_img_alt": ".zon-teaser-standard__media-item",
  "r_img_alt_attr": "alt",
  "r_img_title": ".zon-teaser-standard__title",
  "r_by": ".zon-teaser-standard__byline",
  "r_by_re": [
    "^(Von)?(Interview:)?(.*?)",
    "$3"
  ],
  "tags": {
    "name": "Die Zeit",
    "lang": "de",
    "country": "de",
    "themes": [
      "general"
    ],
    "tech": [
      "many words",
      "one word",
      "fast",
      "broken"
    ],
    "src_type": [
      "Press",
      "Reference Press"
    ],
    "res_type": "text",
    "tz": "Europe/Berlin",
    "what_to_fix": "need cookies ? JavaScript redirection…"
  },
  "headline_selector": ".zon-teaser-poster__combined-link"
},
"https://www.zeit.de/index/video": {
  "extends": "https://www.zeit.de/index",
  "search_url": "https://www.zeit.de/suche/index?q={}&type=video",
  "tags": {
    "name": "Die Zeit (video)",
    "tech": "broken",
    "res_type": "video"
  }
},
"https://www.zeit.de/index/photo": {
  "extends": "https://www.zeit.de/index",
  "search_url": "https://www.zeit.de/suche/index?q={}&type=gallery",
  "r_txt": ".zon-teaser-standard__text",
  "r_img": ".zon-teaser-standard__media-item",
  "tags": {
    "name": "Die Zeit (photo)",
    "tech": "broken",
    "res_type": "image"
  }
}
}